{
  "author": "Department of Transportation and Communications", 
  "author_email": "http://www.dotc.gov.ph/", 
  "download_url": "http://data.insomnation.com/catalogue/storage/f/2013-12-10T09%3A19%3A02.034Z/dotc-rail-data-lrt1-ss-fare-box-ratio.csv", 
  "extras": {
    "Agency Code": "01 001 00 0000", 
    "Agency Name": "CONGRESS OF THE PHILIPPINES | Senate-Proper", 
    "CONTACT NUMBER": "+632727.7960 to 69", 
    "Category": "Transport and Traffic", 
    "Data Dictionary": "", 
    "Data Quality": "yes", 
    "Download URL": "", 
    "Endpoint": "", 
    "Frequency of Update": "Monthly", 
    "Granularity": "Province", 
    "Homepage URL": "http://www.dotc.gov.ph/", 
    "Language": "English", 
    "RSS Feed": "", 
    "Release Date": "2013-12-11", 
    "Size": "0.00045681", 
    "Spatial": "yes", 
    "System of Records": "", 
    "Temporal-end": "2013-12-31", 
    "Temporal-start": "2009-01-01", 
    "Unique Identifer": "DOTC-2013-076"
  }, 
  "id": "f944c5db-5efc-4067-be98-94a93e242416", 
  "license": null, 
  "maintainer": "Bernice Biong", 
  "maintainer_email": "bernicebiongofdotc@gmail.com", 
  "name": "rail-data-lrt-1-fare-box-ratio", 
  "notes": "Contains monthly data on fare revenue over operation expense (excludes interest/financial charges, depreciation, and amortization of capitalized cost \u2013 i.e., development, pre-operating).\r\n", 
  "relationships": [], 
  "resources": [
    {
      "cache_last_updated": null, 
      "cache_url": null, 
      "created": "2013-12-10T09:20:00.575281", 
      "description": "", 
      "format": "XLS", 
      "hash": "", 
      "id": "4dd76273-f26f-4a81-b5fe-5b85db8e08e2", 
      "last_modified": null, 
      "mimetype": null, 
      "mimetype_inner": null, 
      "name": "DOTC-Rail Data (LRT1) ss Fare Box Ratio.csv", 
      "package_id": "f944c5db-5efc-4067-be98-94a93e242416", 
      "position": 0, 
      "resource_group_id": "6d3834f3-7a25-42c4-840e-5ef515aa3f02", 
      "resource_type": "file.upload", 
      "size": null, 
      "tracking_summary": {
        "recent": 0, 
        "total": 0
      }, 
      "url": "http://data.gov.ph/catalogue/storage/f/2013-12-10T09%3A19%3A02.034Z/dotc-rail-data-lrt1-ss-fare-box-ratio.csv", 
      "webstore_last_updated": null, 
      "webstore_url": null
    }, 
    {
      "cache_last_updated": null, 
      "cache_url": null, 
      "created": "2013-12-10T09:21:31.272373", 
      "description": "", 
      "format": "XLS", 
      "hash": "", 
      "id": "a2ccf09c-80ff-46d6-9774-c7e15b7bb226", 
      "last_modified": null, 
      "mimetype": null, 
      "mimetype_inner": null, 
      "name": "DOTC-Rail Data (LRT1) ss Fare Box Ratio.csv", 
      "package_id": "f944c5db-5efc-4067-be98-94a93e242416", 
      "position": 1, 
      "resource_group_id": "6d3834f3-7a25-42c4-840e-5ef515aa3f02", 
      "resource_type": "file.upload", 
      "size": null, 
      "tracking_summary": {
        "recent": 0, 
        "total": 0
      }, 
      "url": "http://data.gov.ph/catalogue/storage/f/2013-12-10T09%3A20%3A33.198Z/dotc-rail-data-lrt1-ss-fare-box-ratio.csv", 
      "webstore_last_updated": null, 
      "webstore_url": null
    }
  ], 
  "tags": [
    "fare ratio", 
    "gross revenue", 
    "mass transit", 
    "rail", 
    "transportations"
  ], 
  "title": "Rail Data LRT 1 Fare Box Ratio", 
  "url": null, 
  "version": null
}