{
  "author": "Department of Transportation and Communications", 
  "author_email": "http://www.dotc.gov.ph/", 
  "download_url": "http://data.insomnation.com/catalogue/storage/f/2013-12-10T05%3A23%3A35.033Z/dotc-airpasscarannual-ss-one-way-2001.csv", 
  "extras": {
    "Agency Code": "01 001 00 0000", 
    "Agency Name": "CONGRESS OF THE PHILIPPINES | Senate-Proper", 
    "CONTACT NUMBER": "+632727.7960 to 69", 
    "Category": "Transport and Traffic", 
    "Data Dictionary": "", 
    "Data Quality": "yes", 
    "Download URL": "", 
    "Endpoint": "", 
    "Frequency of Update": "Annually", 
    "Granularity": "Province", 
    "Homepage URL": "http://www.dotc.gov.ph/", 
    "Language": "English", 
    "RSS Feed": "", 
    "Release Date": "2013-12-11", 
    "Size": "0.0166016", 
    "Spatial": "yes", 
    "System of Records": "", 
    "Temporal-end": "2001-12-31", 
    "Temporal-start": "2001-01-01", 
    "Unique Identifer": "DOTC-2013-033"
  }, 
  "id": "2354c637-2f02-455b-b152-863adaff0b30", 
  "license": null, 
  "maintainer": "Bernice Biong", 
  "maintainer_email": "bernicebiongofdotc@gmail.com", 
  "name": "air-transportation-one-way-aircraft-movement-for-cy-2001", 
  "notes": "Contains annual data on one way aircraft movements in all Philippine airports for the yea 2001.", 
  "relationships": [], 
  "resources": [
    {
      "cache_last_updated": null, 
      "cache_url": null, 
      "created": "2013-12-10T05:24:42.221904", 
      "description": "", 
      "format": "XLS", 
      "hash": "", 
      "id": "ffb8b318-3ee8-405d-9697-f1c60b98d4b0", 
      "last_modified": null, 
      "mimetype": null, 
      "mimetype_inner": null, 
      "name": "DOTC-AirpasscarANNUAL ss one way-2001.csv", 
      "package_id": "2354c637-2f02-455b-b152-863adaff0b30", 
      "position": 0, 
      "resource_group_id": "cc30bae1-f7db-447f-8e17-efcfc58e4b21", 
      "resource_type": "file.upload", 
      "size": null, 
      "tracking_summary": {
        "recent": 0, 
        "total": 0
      }, 
      "url": "http://data.gov.ph/catalogue/storage/f/2013-12-10T05%3A23%3A35.033Z/dotc-airpasscarannual-ss-one-way-2001.csv", 
      "webstore_last_updated": null, 
      "webstore_url": null
    }
  ], 
  "tags": [
    "Aircraft Transportation", 
    "air traffic", 
    "airport", 
    "domestic airports", 
    "international airport", 
    "nationwide", 
    "traffic data"
  ], 
  "title": "Air Transportation One Way Aircraft Movement for CY 2001", 
  "url": null, 
  "version": null
}