{
  "author": "National Anti-Poverty Commission", 
  "author_email": "www.napc.gov.ph", 
  "download_url": "http://#", 
  "extras": {
    "Agency Code": "26 016 00 0000", 
    "Agency Name": "OTHER EXECUTIVE OFFICES | National Anti-Poverty Commission", 
    "CONTACT NUMBER": "(+632) 426-5028", 
    "Category": "Population", 
    "Data Dictionary": "", 
    "Data Quality": "yes", 
    "Download URL": "http://catalogue.data.gov.ph/CBMS/AgusanDelSur/CBMS-Agusan Del Sur-Housing, Water and Sanitation Indicators.xlsx", 
    "Endpoint": "", 
    "Frequency of Update": "Other", 
    "Granularity": "Barangay", 
    "Homepage URL": "http://www.napc.gov.ph", 
    "Language": "English", 
    "RSS Feed": "", 
    "Release Date": "2014-05-07", 
    "Size": "0.024", 
    "Spatial": "no", 
    "System of Records": "", 
    "Temporal-end": "2011-12-31", 
    "Temporal-start": "2006-01-01", 
    "Unique Identifer": "NAPC-2014-008"
  }, 
  "id": "449d3223-d9b8-4bde-9291-92cde21a9c44", 
  "license": null, 
  "maintainer": "Elmer Gomez", 
  "maintainer_email": "elmer_gomez@yahoo.com", 
  "name": "cbms-agusan-del-sur-housing-water-and-sanitation-indicators", 
  "notes": "Community Based Monitoring System - Housing, Water and Sanitation Indicators for Agusan Del Sur Province", 
  "relationships": [], 
  "resources": [
    {
      "cache_last_updated": null, 
      "cache_url": null, 
      "created": "2014-05-05T02:48:06.365358", 
      "description": "", 
      "format": "xlsx", 
      "hash": "", 
      "id": "15be9426-ee48-4f8d-87b5-7fcdedb337fd", 
      "last_modified": null, 
      "mimetype": null, 
      "mimetype_inner": null, 
      "name": "CBMS-Agusan Del Sur-Housing, Water and Sanitation Indicators", 
      "package_id": "449d3223-d9b8-4bde-9291-92cde21a9c44", 
      "position": 0, 
      "resource_group_id": "35ed5df0-8608-4bff-99e1-979663d3c72d", 
      "resource_type": "file", 
      "size": null, 
      "tracking_summary": {
        "recent": 0, 
        "total": 0
      }, 
      "url": "http://#", 
      "webstore_last_updated": null, 
      "webstore_url": null
    }
  ], 
  "tags": [
    "CBMS", 
    "agusan", 
    "housing", 
    "sanitation", 
    "water"
  ], 
  "title": "CBMS - Agusan Del Sur - Housing, Water and Sanitation Indicators", 
  "url": null, 
  "version": null
}