{
  "author": "Philippine Statistics Authority-National Statistical Coordination Board", 
  "author_email": "www.nscb.gov.ph", 
  "download_url": "http://#", 
  "extras": {
    "Agency Code": "24 002 00 0000", 
    "Agency Name": "NATIONAL ECONOMIC DEVELOPMENT AUTHORITY | National Statistical Coordination Board", 
    "CONTACT NUMBER": "(+632) 895-2767", 
    "Category": "Economics and Labor", 
    "Data Dictionary": "", 
    "Data Quality": "yes", 
    "Download URL": "http://catalogue.data.gov.ph/NSCB/NSCB-Crude Oil Importations by Country of Origin-2005 to 2012.xlsx", 
    "Endpoint": "", 
    "Frequency of Update": "Annually", 
    "Granularity": "Country", 
    "Homepage URL": "http://www.nscb.gov.ph", 
    "Language": "English", 
    "RSS Feed": "", 
    "Release Date": "05/07/2014", 
    "Size": ".045", 
    "Spatial": "no", 
    "System of Records": "", 
    "Temporal-end": "12/31/2012", 
    "Temporal-start": "1/1/2005", 
    "Unique Identifer": "NSCB-2014-020"
  }, 
  "id": "ccf9dc14-0f04-4332-bddc-b8eb1a4efc9f", 
  "license": "License Not Specified", 
  "maintainer": "Philippine Statistics Authority-National Statistical Coordination Board", 
  "maintainer_email": "www.nscb.gov.ph", 
  "name": "nscb-crude-oil-importations-by-country-of-origin-2005-to-2012", 
  "notes": "Crude Oil Importations by Country of Origin from 2005 to 2012", 
  "relationships": [], 
  "resources": [
    {
      "cache_last_updated": null, 
      "cache_url": null, 
      "created": "2014-05-04T20:11:34.996281", 
      "description": "", 
      "format": "xlsx", 
      "hash": "", 
      "id": "fa129165-6c72-4139-b864-d07d2b31ea00", 
      "last_modified": null, 
      "mimetype": null, 
      "mimetype_inner": null, 
      "name": "NSCB-Crude Oil Importations by Country of Origin-2005 to 2012", 
      "package_id": "ccf9dc14-0f04-4332-bddc-b8eb1a4efc9f", 
      "position": 0, 
      "resource_group_id": "fec47a16-6f2e-48be-9c31-861b3fecc5cf", 
      "resource_type": "file", 
      "size": null, 
      "tracking_summary": {
        "recent": 0, 
        "total": 0
      }, 
      "url": "http://#", 
      "webstore_last_updated": null, 
      "webstore_url": null
    }
  ], 
  "tags": [
    "crude oil", 
    "importations", 
    "oil"
  ], 
  "title": "NSCB - Crude Oil Importations by Country of Origin - 2005 to 2012", 
  "url": null, 
  "version": null
}