{
  "author": "Department of Transportation and Communications", 
  "author_email": "http://www.dotc.gov.ph/", 
  "download_url": "http://data.insomnation.com/catalogue/storage/f/2013-12-10T08%3A21%3A14.453Z/dotc-airpasscarannual-ss-roundtrip-2009.csv", 
  "extras": {
    "Agency Code": "01 001 00 0000", 
    "Agency Name": "CONGRESS OF THE PHILIPPINES | Senate-Proper", 
    "CONTACT NUMBER": "+632727.7960 to 69", 
    "Category": "Transport and Traffic", 
    "Data Dictionary": "", 
    "Data Quality": "yes", 
    "Download URL": "", 
    "Endpoint": "", 
    "Frequency of Update": "Annually", 
    "Granularity": "Province", 
    "Homepage URL": "http://www.dotc.gov.ph/", 
    "Language": "English", 
    "RSS Feed": "", 
    "Release Date": "2013-12-11", 
    "Size": "0.015625", 
    "Spatial": "yes", 
    "System of Records": "", 
    "Temporal-end": "2009-12-31", 
    "Temporal-start": "2009-01-01", 
    "Unique Identifer": "DOTC-2013-064"
  }, 
  "id": "456f800f-6ec1-4bdd-89d9-df5825051c99", 
  "license": null, 
  "maintainer": "Bernice Biong", 
  "maintainer_email": "bernicebiongofdotc@gmail.com", 
  "name": "air-transportation-round-trip-aircraft-movement-for-cy-2009", 
  "notes": "Contains annual data on roundtrip aircraft movement in all Philippine airports for the year 2009.", 
  "relationships": [], 
  "resources": [
    {
      "cache_last_updated": null, 
      "cache_url": null, 
      "created": "2013-12-10T08:22:24.696032", 
      "description": "", 
      "format": "XLS", 
      "hash": "", 
      "id": "29216ed3-2b82-4d59-aa84-f313b6d8eb2d", 
      "last_modified": null, 
      "mimetype": null, 
      "mimetype_inner": null, 
      "name": "DOTC-AirpasscarANNUAL ss roundtrip-2009.csv", 
      "package_id": "456f800f-6ec1-4bdd-89d9-df5825051c99", 
      "position": 0, 
      "resource_group_id": "591adcc2-c086-4ef0-b717-82dcbe65aed5", 
      "resource_type": "file.upload", 
      "size": null, 
      "tracking_summary": {
        "recent": 0, 
        "total": 0
      }, 
      "url": "http://data.gov.ph/catalogue/storage/f/2013-12-10T08%3A21%3A14.453Z/dotc-airpasscarannual-ss-roundtrip-2009.csv", 
      "webstore_last_updated": null, 
      "webstore_url": null
    }
  ], 
  "tags": [
    "actual traffic", 
    "airport", 
    "domestic airport", 
    "international airport", 
    "nationwide", 
    "round trip", 
    "traffic data", 
    "transportation"
  ], 
  "title": "Air Transportation Round Trip Aircraft Movement for CY 2009", 
  "url": null, 
  "version": null
}