{
  "author": "National Mapping and Resource Information Authority", 
  "author_email": "oss@namria.gov.ph", 
  "download_url": "http://geoportal.gov.ph/?p=%7B%22g%22%3A%5B13572142.604587%2C1343406.1596851%2C10%2C%22Philippine%20Geoportal%20Basemap%22%5D%2C%22l%22%3A%5B%5B%22Contour%201%3A10%2C000%22%2C%22geoportal%3Acontour10k%22%2C1%2C%22Contour_10k%22%2C0%2Cnull%5D%5D%7D", 
  "extras": {
    "Agency Code": "10 004 00 0000", 
    "Agency Name": "DEPARTMENT OF ENVIRONMENT AND NATURAL RESOURCES | National Mapping and Resource Information Authority", 
    "CONTACT NUMBER": "+632(02) 810-48-31 TO 44 Local 420", 
    "Category": "Geography, Geology and Geodata", 
    "Data Dictionary": "", 
    "Data Quality": "yes", 
    "Download URL": "http://geoportal.gov.ph/?p=%7B%22g%22%3A%5B13572142.604587%2C1343406.1596851%2C10%2C%22Philippine%20Geoportal%20Basemap%22%5D%2C%22l%22%3A%5B%5B%22Contour%201%3A10%2C000%22%2C%22geoportal%3Acontour10k%22%2C1%2C%22Contour_10k%22%2C0%2Cnull%5D%5D%7D", 
    "Endpoint": "", 
    "Frequency of Update": "Other", 
    "Granularity": "Country", 
    "Homepage URL": "http://www.namria.gov.ph/", 
    "Language": "English", 
    "RSS Feed": "", 
    "Release Date": "2013-12-18", 
    "Size": "", 
    "Spatial": "no", 
    "System of Records": "", 
    "Temporal-end": "", 
    "Temporal-start": "", 
    "Unique Identifer": "NAMRIA-2013-078"
  }, 
  "id": "159d2433-4cf1-4d4b-94d3-da1b92e846b6", 
  "license": null, 
  "maintainer": "Dr. Peter N. Tiangco", 
  "maintainer_email": "ptiangco@namria.gov.ph", 
  "name": "contour-1-10-000-for-dagupan-calapan-metro-manila-boracay", 
  "notes": "Contour 1:10,000 for Dagupan, Calapan, Metro Manila & Boracay is a fundamental dataset of the National Mapping and Resource Information Authority (NAMRIA) uploaded in the Philippine Geoportal System (www.geoportal.gov.ph)  ", 
  "relationships": [], 
  "resources": [
    {
      "cache_last_updated": null, 
      "cache_url": null, 
      "created": "2013-12-17T01:56:09.046964", 
      "description": "", 
      "format": "PDF", 
      "hash": "", 
      "id": "ac48826c-cb1c-4ea9-8f3a-8438500b5a3e", 
      "last_modified": null, 
      "mimetype": null, 
      "mimetype_inner": null, 
      "name": "Contour 1:10,000 for Dagupan, Calapan, Metro Manila & Boracay", 
      "package_id": "159d2433-4cf1-4d4b-94d3-da1b92e846b6", 
      "position": 0, 
      "resource_group_id": "b3a86714-a329-4098-bdd1-954752147009", 
      "resource_type": "file", 
      "size": null, 
      "tracking_summary": {
        "recent": 0, 
        "total": 0
      }, 
      "url": "http://geoportal.gov.ph/?p=%7B%22g%22%3A%5B13572142.604587%2C1343406.1596851%2C10%2C%22Philippine%20Geoportal%20Basemap%22%5D%2C%22l%22%3A%5B%5B%22Contour%201%3A10%2C000%22%2C%22geoportal%3Acontour10k%22%2C1%2C%22Contour_10k%22%2C0%2Cnull%5D%5D%7D", 
      "webstore_last_updated": null, 
      "webstore_url": null
    }
  ], 
  "tags": [
    "Boracay", 
    "Calapan", 
    "Contour philippines", 
    "Dagupan", 
    "Metro Manila"
  ], 
  "title": "Contour 1:10,000 for Dagupan, Calapan, Metro Manila & Boracay", 
  "url": null, 
  "version": null
}