{
  "author": "Department of Environment and Natural Resources", 
  "author_email": "http://www.denr.gov.ph/", 
  "download_url": "http://data.insomnation.com/catalogue/storage/f/2013-12-12T02%3A40%3A32.539Z/prices-lumber-2011.csv", 
  "extras": {
    "Agency Code": "10 002 00 0000", 
    "Agency Name": "DEPARTMENT OF ENVIRONMENT AND NATURAL RESOURCES | Environmental Management Bureau", 
    "CONTACT NUMBER": "(+632)929-6626 to 29;", 
    "Category": "Environment and Climate", 
    "Data Dictionary": "", 
    "Data Quality": "yes", 
    "Download URL": "", 
    "Endpoint": "", 
    "Frequency of Update": "Annually", 
    "Granularity": "Country", 
    "Homepage URL": "http://www.denr.gov.ph/", 
    "Language": "English", 
    "RSS Feed": "", 
    "Release Date": "2013-12-13", 
    "Size": "0.003330078", 
    "Spatial": "yes", 
    "System of Records": "", 
    "Temporal-end": "2011-12-31", 
    "Temporal-start": "2011-01-01", 
    "Unique Identifer": "DENR-2013-025"
  }, 
  "id": "d913b8f7-f220-413c-ae7e-3e10e834e34c", 
  "license": null, 
  "maintainer": "Roberto L. de Leon ", 
  "maintainer_email": "RLdeleon@denr.gov.ph", 
  "name": "average-domestic-price-of-lumber-2011", 
  "notes": "This dataset contains the average domestic price for the year 2011.", 
  "relationships": [], 
  "resources": [
    {
      "cache_last_updated": null, 
      "cache_url": null, 
      "created": "2013-12-12T02:41:34.769648", 
      "description": "", 
      "format": "XLS", 
      "hash": "", 
      "id": "f2039d52-9834-4f91-89d7-851d63d16904", 
      "last_modified": null, 
      "mimetype": null, 
      "mimetype_inner": null, 
      "name": "prices-lumber 2011.csv", 
      "package_id": "d913b8f7-f220-413c-ae7e-3e10e834e34c", 
      "position": 0, 
      "resource_group_id": "c28eb5bb-13a3-4ce6-ad6b-55ce059fcdb0", 
      "resource_type": "file.upload", 
      "size": null, 
      "tracking_summary": {
        "recent": 0, 
        "total": 0
      }, 
      "url": "http://data.gov.ph/catalogue/storage/f/2013-12-12T02%3A40%3A32.539Z/prices-lumber-2011.csv", 
      "webstore_last_updated": null, 
      "webstore_url": null
    }, 
    {
      "cache_last_updated": null, 
      "cache_url": null, 
      "created": "2013-12-12T02:41:35.797213", 
      "description": "", 
      "format": "XLS", 
      "hash": "", 
      "id": "0d14c46e-a644-4b83-85f8-0905ed9eb986", 
      "last_modified": null, 
      "mimetype": null, 
      "mimetype_inner": null, 
      "name": "prices-lumber 2011.csv", 
      "package_id": "d913b8f7-f220-413c-ae7e-3e10e834e34c", 
      "position": 1, 
      "resource_group_id": "c28eb5bb-13a3-4ce6-ad6b-55ce059fcdb0", 
      "resource_type": "file.upload", 
      "size": null, 
      "tracking_summary": {
        "recent": 0, 
        "total": 0
      }, 
      "url": "http://data.gov.ph/catalogue/storage/f/2013-12-12T02%3A40%3A32.539Z/prices-lumber-2011.csv", 
      "webstore_last_updated": null, 
      "webstore_url": null
    }, 
    {
      "cache_last_updated": null, 
      "cache_url": null, 
      "created": "2013-12-12T02:44:12.968536", 
      "description": "", 
      "format": "XLS", 
      "hash": "", 
      "id": "51c5a4df-029f-4bc1-9433-75665202d5e3", 
      "last_modified": null, 
      "mimetype": null, 
      "mimetype_inner": null, 
      "name": "prices-lumber 2011.csv", 
      "package_id": "d913b8f7-f220-413c-ae7e-3e10e834e34c", 
      "position": 2, 
      "resource_group_id": "c28eb5bb-13a3-4ce6-ad6b-55ce059fcdb0", 
      "resource_type": "file.upload", 
      "size": null, 
      "tracking_summary": {
        "recent": 0, 
        "total": 0
      }, 
      "url": "http://data.gov.ph/catalogue/storage/f/2013-12-12T02%3A43%3A02.401Z/prices-lumber-2011.csv", 
      "webstore_last_updated": null, 
      "webstore_url": null
    }
  ], 
  "tags": [
    "lumber price 2011"
  ], 
  "title": "AVERAGE DOMESTIC PRICE OF LUMBER 2011", 
  "url": null, 
  "version": null
}