{
  "author": "Department of Transportation and Communications", 
  "author_email": "http://www.dotc.gov.ph/", 
  "download_url": "http://data.insomnation.com/catalogue/storage/f/2013-12-10T09%3A46%3A04.992Z/dotc-rail-data-lrt2-ss-gross-revenue-collection.csv", 
  "extras": {
    "Agency Code": "01 001 00 0000", 
    "Agency Name": "CONGRESS OF THE PHILIPPINES | Senate-Proper", 
    "CONTACT NUMBER": "+632727.7960 to 69", 
    "Category": "Transport and Traffic", 
    "Data Dictionary": "", 
    "Data Quality": "yes", 
    "Download URL": "", 
    "Endpoint": "", 
    "Frequency of Update": "Monthly", 
    "Granularity": "Region", 
    "Homepage URL": "http://www.dotc.gov.ph/", 
    "Language": "English", 
    "RSS Feed": "", 
    "Release Date": "2013-12-11", 
    "Size": "0.000564575", 
    "Spatial": "no", 
    "System of Records": "", 
    "Temporal-end": "2013-07-01", 
    "Temporal-start": "2009-01-01", 
    "Unique Identifer": "DOTC-2013-082"
  }, 
  "id": "fc169ea9-1076-4163-963f-c1493956f41c", 
  "license": null, 
  "maintainer": "Bernice Biong", 
  "maintainer_email": "bernicebiongofdotc@gmail.com", 
  "name": "rail-data-lrt2-gross-revenue-collection-in-php-million-2009-to-2013", 
  "notes": "Contains  gross revenue, per month, of the Light Rail Transit Authority (LRTA) from Line 2 operations.", 
  "relationships": [], 
  "resources": [
    {
      "cache_last_updated": null, 
      "cache_url": null, 
      "created": "2013-12-10T09:47:03.320392", 
      "description": "", 
      "format": "XLS", 
      "hash": "", 
      "id": "19013234-ab4a-4717-8897-562690b8612f", 
      "last_modified": null, 
      "mimetype": null, 
      "mimetype_inner": null, 
      "name": "DOTC-Rail Data (LRT2) ss Gross Revenue Collection.csv", 
      "package_id": "fc169ea9-1076-4163-963f-c1493956f41c", 
      "position": 0, 
      "resource_group_id": "8d05b8d5-aa9b-4c70-b5dd-e2ee1bf28a81", 
      "resource_type": "file.upload", 
      "size": null, 
      "tracking_summary": {
        "recent": 0, 
        "total": 0
      }, 
      "url": "http://data.gov.ph/catalogue/storage/f/2013-12-10T09%3A46%3A04.992Z/dotc-rail-data-lrt2-ss-gross-revenue-collection.csv", 
      "webstore_last_updated": null, 
      "webstore_url": null
    }
  ], 
  "tags": [
    "actual gross revenue", 
    "gross revenue", 
    "mass transit", 
    "rail", 
    "transportation"
  ], 
  "title": "Rail Data LRT2 Gross Revenue Collection in Php Million 2009 to 2013", 
  "url": null, 
  "version": null
}