{
  "author": "National Anti-Poverty Commission", 
  "author_email": "www.napc.gov.ph", 
  "download_url": "http://#", 
  "extras": {
    "Agency Code": "26 016 00 0000", 
    "Agency Name": "OTHER EXECUTIVE OFFICES | National Anti-Poverty Commission", 
    "CONTACT NUMBER": "(+632) 426-5028", 
    "Category": "Population", 
    "Data Dictionary": "", 
    "Data Quality": "yes", 
    "Download URL": "http://catalogue.data.gov.ph/CBMS/Masbate/CBMS-Masbate-Basic Education Indicators.xls", 
    "Endpoint": "", 
    "Frequency of Update": "Other", 
    "Granularity": "Barangay", 
    "Homepage URL": "http://www.napc.gov.ph", 
    "Language": "English", 
    "RSS Feed": "", 
    "Release Date": "2014-05-07", 
    "Size": "0.014", 
    "Spatial": "no", 
    "System of Records": "", 
    "Temporal-end": "2011-12-31", 
    "Temporal-start": "2006-01-01", 
    "Unique Identifer": "NAPC-2014-027"
  }, 
  "id": "2f63d450-9f5f-4ff6-82cb-fab5eac9da7c", 
  "license": null, 
  "maintainer": "Elmer Gomez", 
  "maintainer_email": "elmer_gomez@yahoo.com", 
  "name": "cbms-masbate-basic-education-indicators", 
  "notes": "Community Based Monitoring System - Basic Education Indicators for Masbate Province", 
  "relationships": [], 
  "resources": [
    {
      "cache_last_updated": null, 
      "cache_url": null, 
      "created": "2014-05-05T06:14:09.377214", 
      "description": "", 
      "format": "xlsx", 
      "hash": "", 
      "id": "20fdcac6-7ff8-4c74-ae5f-63932a599fa2", 
      "last_modified": null, 
      "mimetype": null, 
      "mimetype_inner": null, 
      "name": "CBMS-Masbate-Basic Education Indicators", 
      "package_id": "2f63d450-9f5f-4ff6-82cb-fab5eac9da7c", 
      "position": 0, 
      "resource_group_id": "cdb36b18-f7a3-4ed4-94f4-854bfe756951", 
      "resource_type": "file", 
      "size": null, 
      "tracking_summary": {
        "recent": 0, 
        "total": 0
      }, 
      "url": "http://#", 
      "webstore_last_updated": null, 
      "webstore_url": null
    }
  ], 
  "tags": [
    "CBMS", 
    "basic education", 
    "education", 
    "masbate"
  ], 
  "title": "CBMS - Masbate - Basic Education Indicators", 
  "url": null, 
  "version": null
}