{
  "author": "Department of Education", 
  "author_email": "http://www.deped.gov.ph/", 
  "download_url": "http://data.insomnation.com/catalogue/storage/f/2013-12-09T09%3A30%3A23.976Z/deped-gross-enrollment-ratio-and-net-enrollment-ratio-for-public-secondary-schools-2005-to-2011.csv", 
  "extras": {
    "Agency Code": "01 001 00 0000", 
    "Agency Name": "CONGRESS OF THE PHILIPPINES | Senate-Proper", 
    "CONTACT NUMBER": "+632632-1361 to 71;", 
    "Category": "Education and Science", 
    "Data Dictionary": "", 
    "Data Quality": "yes", 
    "Download URL": "", 
    "Endpoint": "", 
    "Frequency of Update": "Annually", 
    "Granularity": "Country", 
    "Homepage URL": "http://www.deped.gov.ph/", 
    "Language": "English", 
    "RSS Feed": "", 
    "Release Date": "2013-12-10", 
    "Size": "0.04013672", 
    "Spatial": "yes", 
    "System of Records": "", 
    "Temporal-end": "2012-12-31", 
    "Temporal-start": "2005-01-01", 
    "Unique Identifer": "DEPED-2013-002"
  }, 
  "id": "2e3b7158-1358-4b5e-b5a5-f5211994451e", 
  "license": null, 
  "maintainer": " Maria Clarisse Ligunas", 
  "maintainer_email": "mariaclarisse.ligunas@deped.gov.ph", 
  "name": "total-school-enrollment-for-public-elementary-schools-2005-2012", 
  "notes": "This dataset contains total school enrollment for public elementary schools  for the year 2005 to 2012.", 
  "relationships": [], 
  "resources": [
    {
      "cache_last_updated": null, 
      "cache_url": null, 
      "created": "2013-12-09T09:31:32.910311", 
      "description": "", 
      "format": "XLS", 
      "hash": "", 
      "id": "e3e44c52-44e9-42f1-9c9a-4e5c626b79f3", 
      "last_modified": null, 
      "mimetype": null, 
      "mimetype_inner": null, 
      "name": "DEPED-Gross Enrollment Ratio and Net Enrollment Ratio for Public Secondary Schools - 2005 to 2011.csv", 
      "package_id": "2e3b7158-1358-4b5e-b5a5-f5211994451e", 
      "position": 0, 
      "resource_group_id": "386fdf09-c4b8-4289-8af6-13c9b35b65d9", 
      "resource_type": "file.upload", 
      "size": null, 
      "tracking_summary": {
        "recent": 0, 
        "total": 0
      }, 
      "url": "http://data.gov.ph/catalogue/storage/f/2013-12-09T09%3A30%3A23.976Z/deped-gross-enrollment-ratio-and-net-enrollment-ratio-for-public-secondary-schools-2005-to-2011.csv", 
      "webstore_last_updated": null, 
      "webstore_url": null
    }
  ], 
  "tags": [
    "total school enrollment for public schools"
  ], 
  "title": "Total School Enrollment for Public Elementary Schools - 2005 - 2012", 
  "url": null, 
  "version": null
}