{
  "author": "Bangko Sentral ng Pilipinas", 
  "author_email": "bspmail@bsp.gov.ph", 
  "download_url": "http://www.bsp.gov.ph/banking/pbs_archives/2008/13.xls", 
  "extras": {
    "Agency Code": "01 001 00 0000", 
    "Agency Name": "CONGRESS OF THE PHILIPPINES | Senate-Proper", 
    "CONTACT NUMBER": "(+632) 708-7559  or (+632) 708-7701 local 3045 or 3046", 
    "Category": "Economics and Labor", 
    "Data Dictionary": "http://www.bsp.gov.ph/banking/glossary.asp", 
    "Data Quality": "yes", 
    "Download URL": "http://www.bsp.gov.ph/banking/pbs_archives/2008/13.xls", 
    "Endpoint": "", 
    "Frequency of Update": "Quarterly", 
    "Granularity": "Country", 
    "Homepage URL": "http://www.bsp.gov.ph", 
    "Language": "English", 
    "RSS Feed": "", 
    "Release Date": "12/13/2013", 
    "Size": ".207", 
    "Spatial": "no", 
    "System of Records": "Banking Statistics", 
    "Temporal-end": "12/31/2008", 
    "Temporal-start": "01/01/2008", 
    "Unique Identifer": "BSP-2013-065"
  }, 
  "id": "bb5abec4-f3b8-406a-9261-9174b4bf0e03", 
  "license": null, 
  "maintainer": "Director Vicente T. De Villa III", 
  "maintainer_email": "VdeVilla@bsp.gov.ph", 
  "name": "income-statement-and-key-ratios-of-universal-and-commercial-banking-system-2008", 
  "notes": "Income Statement/Consolidated Statement of Income and Expense, and Key Ratios of Universal and Commercial Banking System", 
  "relationships": [], 
  "resources": [
    {
      "cache_last_updated": null, 
      "cache_url": null, 
      "created": "2013-12-12T06:16:30.070474", 
      "description": "", 
      "format": "XLS", 
      "hash": "", 
      "id": "7c5fb948-e69b-4827-8add-911eee9db10d", 
      "last_modified": null, 
      "mimetype": null, 
      "mimetype_inner": null, 
      "name": "Income Statement and Key Ratios of Universal and Commercial Banking System 2008", 
      "package_id": "bb5abec4-f3b8-406a-9261-9174b4bf0e03", 
      "position": 0, 
      "resource_group_id": "602f49b0-f6e9-427a-ae17-a86db19a9f34", 
      "resource_type": "file", 
      "size": null, 
      "tracking_summary": {
        "recent": 0, 
        "total": 0
      }, 
      "url": "http://www.bsp.gov.ph/banking/pbs_archives/2008/13.xls", 
      "webstore_last_updated": null, 
      "webstore_url": null
    }
  ], 
  "tags": [
    "CSIE", 
    "IS", 
    "consolidated statement of income and expense", 
    "income and expense", 
    "income statement", 
    "key ratios"
  ], 
  "title": "Income Statement and Key Ratios of Universal and Commercial Banking System 2008", 
  "url": null, 
  "version": null
}