{
  "author": "Commission on Higher Education", 
  "author_email": "http://www.ched.gov.ph/", 
  "download_url": "http://data.insomnation.com/catalogue/storage/f/2013-12-09T07%3A52%3A18.337Z/ched-sucs-per-student-cost-by-region-2009-to-2011.csv", 
  "extras": {
    "Agency Code": "01 001 00 0000", 
    "Agency Name": "CONGRESS OF THE PHILIPPINES | Senate-Proper", 
    "CONTACT NUMBER": "(+632) 441-1149 loc 128", 
    "Category": "Economics and Labor", 
    "Data Dictionary": "", 
    "Data Quality": "yes", 
    "Download URL": "", 
    "Endpoint": "", 
    "Frequency of Update": "Annually", 
    "Granularity": "Region", 
    "Homepage URL": "http://www.ched.gov.ph/chedwww/index.php/eng/Information/Statistics", 
    "Language": "English", 
    "RSS Feed": "", 
    "Release Date": "2013-12-10", 
    "Size": "0.00976563", 
    "Spatial": "yes", 
    "System of Records": "", 
    "Temporal-end": "2011-01-01", 
    "Temporal-start": "2009-01-01", 
    "Unique Identifer": "CHED-2013-015"
  }, 
  "id": "ab8cb488-588b-47b6-8fe4-9650a6da049e", 
  "license": null, 
  "maintainer": "Office of Planning, Research and Knowledge Management - Knowledge Management Division ", 
  "maintainer_email": "gatienza@ched.gov.ph", 
  "name": "state-university-and-colleges-per-student-cost-by-region-2009-to-2011", 
  "notes": "This data set contains the estimated cost per student in State Universities and Colleges (SUCs)  by Region.  The cost was based from AY 2009 to 2010 and 2010 to 2011.", 
  "relationships": [], 
  "resources": [
    {
      "cache_last_updated": null, 
      "cache_url": null, 
      "created": "2013-12-09T07:55:05.590038", 
      "description": "", 
      "format": "XLS", 
      "hash": "", 
      "id": "f1fed76e-a9a3-4c79-8f2d-7731132ec7d1", 
      "last_modified": null, 
      "mimetype": null, 
      "mimetype_inner": null, 
      "name": "CHED-SUCs Per Student Cost by Region-2009 to 2011.csv", 
      "package_id": "ab8cb488-588b-47b6-8fe4-9650a6da049e", 
      "position": 0, 
      "resource_group_id": "963c1a1f-ba1b-461c-88af-4bd63e94911b", 
      "resource_type": "file.upload", 
      "size": null, 
      "tracking_summary": {
        "recent": 0, 
        "total": 0
      }, 
      "url": "http://data.gov.ph/catalogue/storage/f/2013-12-09T07%3A52%3A18.337Z/ched-sucs-per-student-cost-by-region-2009-to-2011.csv", 
      "webstore_last_updated": null, 
      "webstore_url": null
    }
  ], 
  "tags": [
    "Cost per student", 
    "SUC", 
    "by region"
  ], 
  "title": "State University and Colleges Per Student Cost by Region 2009 to 2011", 
  "url": null, 
  "version": null
}