{
  "author": "National Anti Poverty Commission", 
  "author_email": "info@napc.gov.ph", 
  "download_url": "http://www.geoportal.gov.ph/?p=%7B%22g%22%3A%5B13610082.099764%2C1403622.1394924%2C1%2C%22Philippine%20Geoportal%20Basemap%22%5D%2C%22l%22%3A%5B%5B%22Peace%20%26%20Order%3A%20%25%20of%20crime%20victims%22%2C%22geoportal%3Acbms_peace%22%2C1%2C%22personswhowerevictimsofcrime%22%2C0%2Cnull%5D%5D%7D", 
  "extras": {
    "Agency Code": "10 004 00 0000", 
    "Agency Name": "DEPARTMENT OF ENVIRONMENT AND NATURAL RESOURCES | National Mapping and Resource Information Authority", 
    "CONTACT NUMBER": "+632(02) 426-50-28", 
    "Category": "Economics and Labor", 
    "Data Dictionary": "", 
    "Data Quality": "yes", 
    "Download URL": "http://www.geoportal.gov.ph/?p=%7B%22g%22%3A%5B13610082.099764%2C1403622.1394924%2C1%2C%22Philippine%20Geoportal%20Basemap%22%5D%2C%22l%22%3A%5B%5B%22Peace%20%26%20Order%3A%20%25%20of%20crime%20victims%22%2C%22geoportal%3Acbms_peace%22%2C1%2C%22personswhowerevictimsofcrime%22%2C0%2Cnull%5D%5D%7D", 
    "Endpoint": "", 
    "Frequency of Update": "Other", 
    "Granularity": "Country", 
    "Homepage URL": "http://www.namria.gov.ph/", 
    "Language": "English", 
    "RSS Feed": "", 
    "Release Date": "2013-12-20", 
    "Size": "", 
    "Spatial": "no", 
    "System of Records": "", 
    "Temporal-end": "", 
    "Temporal-start": "", 
    "Unique Identifer": "NAMRIA-2013-106"
  }, 
  "id": "b1a7d011-a3d0-43f2-9542-997513b4e2cd", 
  "license": null, 
  "maintainer": "Joel M. Rocamora", 
  "maintainer_email": "info@napc.gov.ph", 
  "name": "peace-order-of-crime-victims", 
  "notes": "Peace & Order: % of crime victims is a fundamental dataset uploaded to the Philippine Geoportal System (www.geoportal.gov.ph).  The dataset was shared to the portal by the National Anti-Poverty Commission.", 
  "relationships": [], 
  "resources": [
    {
      "cache_last_updated": null, 
      "cache_url": null, 
      "created": "2013-12-19T03:19:39.834109", 
      "description": "", 
      "format": "PDF", 
      "hash": "", 
      "id": "38a8b210-1e90-40a0-a544-de848d1989f8", 
      "last_modified": null, 
      "mimetype": null, 
      "mimetype_inner": null, 
      "name": "Peace & Order: % of crime victims", 
      "package_id": "b1a7d011-a3d0-43f2-9542-997513b4e2cd", 
      "position": 0, 
      "resource_group_id": "bcef88f8-650d-4b57-afbf-a367a3bbf4d4", 
      "resource_type": "file", 
      "size": null, 
      "tracking_summary": {
        "recent": 0, 
        "total": 0
      }, 
      "url": "http://www.geoportal.gov.ph/?p=%7B%22g%22%3A%5B13610082.099764%2C1403622.1394924%2C1%2C%22Philippine%20Geoportal%20Basemap%22%5D%2C%22l%22%3A%5B%5B%22Peace%20%26%20Order%3A%20%25%20of%20crime%20victims%22%2C%22geoportal%3Acbms_peace%22%2C1%2C%22personswhowerevictimsofcrime%22%2C0%2Cnull%5D%5D%7D", 
      "webstore_last_updated": null, 
      "webstore_url": null
    }
  ], 
  "tags": [
    "crime victims", 
    "namria", 
    "order", 
    "peace", 
    "philippines"
  ], 
  "title": "Peace & Order: % of crime victims", 
  "url": null, 
  "version": null
}