{
  "author": "National Economic and Development Authority", 
  "author_email": "http://www.neda.gov.ph/", 
  "download_url": "http://data.insomnation.com/catalogue/storage/f/2014-01-03T06%3A05%3A15.832Z/06-february-2013-neda-updates.csv", 
  "extras": {
    "Agency Code": "24 003 00 0000", 
    "Agency Name": "NATIONAL ECONOMIC DEVELOPMENT AUTHORITY | National Statistics Office", 
    "CONTACT NUMBER": "(+632) 727-7960", 
    "Category": "Economics and Labor", 
    "Data Dictionary": "", 
    "Data Quality": "yes", 
    "Download URL": "", 
    "Endpoint": "", 
    "Frequency of Update": "Annually", 
    "Granularity": "Country", 
    "Homepage URL": "http://www.neda.gov.ph/", 
    "Language": "English", 
    "RSS Feed": "", 
    "Release Date": "2014-01-04", 
    "Size": "0.0078125", 
    "Spatial": "no", 
    "System of Records": "", 
    "Temporal-end": "2013-02-06", 
    "Temporal-start": "2013-01-01", 
    "Unique Identifer": "NEDA-2013-038"
  }, 
  "id": "b601e6eb-3172-42e2-865f-7da873dbcbcb", 
  "license": null, 
  "maintainer": "Jenny Rose C. Espiritu ", 
  "maintainer_email": "JCEspiritu@neda.gov.ph", 
  "name": "06-february-2013-neda-updates", 
  "notes": "This dataset contains NEDA Updates for February 6, 2013", 
  "relationships": [], 
  "resources": [
    {
      "cache_last_updated": null, 
      "cache_url": null, 
      "created": "2014-01-03T06:06:37.942341", 
      "description": "", 
      "format": "XLS", 
      "hash": "", 
      "id": "7417b4a8-b402-4cdf-a361-5601b033afb4", 
      "last_modified": null, 
      "mimetype": null, 
      "mimetype_inner": null, 
      "name": "06 February 2013 NEDA Updates.csv", 
      "package_id": "b601e6eb-3172-42e2-865f-7da873dbcbcb", 
      "position": 0, 
      "resource_group_id": "4d968a9c-92cc-4d8a-9613-d072dd57f0fc", 
      "resource_type": "file.upload", 
      "size": null, 
      "tracking_summary": {
        "recent": 0, 
        "total": 0
      }, 
      "url": "http://data.gov.ph/catalogue/storage/f/2014-01-03T06%3A05%3A15.832Z/06-february-2013-neda-updates.csv", 
      "webstore_last_updated": null, 
      "webstore_url": null
    }
  ], 
  "tags": [
    "NEDA", 
    "NEDA Updates", 
    "NEDA Updates February 6 2013"
  ], 
  "title": "06 February 2013 NEDA Updates", 
  "url": null, 
  "version": null
}