{
  "author": "Department of Environment and Natural Resources", 
  "author_email": "http://www.denr.gov.ph/", 
  "download_url": "http://data.insomnation.com/catalogue/storage/f/2013-12-12T05%3A38%3A55.167Z/12-403-domestic-prices-of-imported-logs.csv", 
  "extras": {
    "Agency Code": "10 002 00 0000", 
    "Agency Name": "DEPARTMENT OF ENVIRONMENT AND NATURAL RESOURCES | Environmental Management Bureau", 
    "CONTACT NUMBER": "(+632)929-6626 to 29;", 
    "Category": "Environment and Climate", 
    "Data Dictionary": "", 
    "Data Quality": "yes", 
    "Download URL": "", 
    "Endpoint": "", 
    "Frequency of Update": "Annually", 
    "Granularity": "Country", 
    "Homepage URL": "http://www.denr.gov.ph/", 
    "Language": "English", 
    "RSS Feed": "", 
    "Release Date": "2013-12-13", 
    "Size": "0.000291824", 
    "Spatial": "yes", 
    "System of Records": "", 
    "Temporal-end": "2012-12-31", 
    "Temporal-start": "2012-01-01", 
    "Unique Identifer": "DENR-2013-048"
  }, 
  "id": "81157ec1-0350-4c7d-b167-715488393e34", 
  "license": null, 
  "maintainer": "Roberto L. de Leon ", 
  "maintainer_email": "RLdeleon@denr.gov.ph", 
  "name": "domestic-prices-of-imported-logs", 
  "notes": "This dataset contains the domestic prices of imported logs for the year 2012.", 
  "relationships": [], 
  "resources": [
    {
      "cache_last_updated": null, 
      "cache_url": null, 
      "created": "2013-12-12T05:40:03.078157", 
      "description": "", 
      "format": "XLS", 
      "hash": "", 
      "id": "ef3cb1ba-a2a2-4baf-957e-5dcc8edd28b2", 
      "last_modified": null, 
      "mimetype": null, 
      "mimetype_inner": null, 
      "name": "12-403 Domestic Prices of Imported Logs.csv", 
      "package_id": "81157ec1-0350-4c7d-b167-715488393e34", 
      "position": 0, 
      "resource_group_id": "b87d7547-100a-4f24-9a21-a8d70e394ff6", 
      "resource_type": "file.upload", 
      "size": null, 
      "tracking_summary": {
        "recent": 0, 
        "total": 0
      }, 
      "url": "http://data.gov.ph/catalogue/storage/f/2013-12-12T05%3A38%3A55.167Z/12-403-domestic-prices-of-imported-logs.csv", 
      "webstore_last_updated": null, 
      "webstore_url": null
    }
  ], 
  "tags": [
    "prices of imported logs 201"
  ], 
  "title": " Domestic Prices of Imported Logs", 
  "url": null, 
  "version": null
}