{
  "author": "Department of Transportation and Communications", 
  "author_email": "http://www.dotc.gov.ph/", 
  "download_url": "http://data.insomnation.com/catalogue/storage/f/2013-12-10T08%3A09%3A47.996Z/dotc-airpasscarannual-ss-roundtrip-2007.csv", 
  "extras": {
    "Agency Code": "01 001 00 0000", 
    "Agency Name": "CONGRESS OF THE PHILIPPINES | Senate-Proper", 
    "CONTACT NUMBER": "+632727.7960 to 69", 
    "Category": "Transport and Traffic", 
    "Data Dictionary": "", 
    "Data Quality": "yes", 
    "Download URL": "", 
    "Endpoint": "", 
    "Frequency of Update": "Annually", 
    "Granularity": "Province", 
    "Homepage URL": "http://www.dotc.gov.ph/", 
    "Language": "English", 
    "RSS Feed": "", 
    "Release Date": "2013-12-11", 
    "Size": "0.0126953", 
    "Spatial": "yes", 
    "System of Records": "", 
    "Temporal-end": "2007-12-31", 
    "Temporal-start": "2007-01-01", 
    "Unique Identifer": "DOTC-2013-062"
  }, 
  "id": "69a03dc1-2b32-48b9-8cac-4e26e6b8c5ce", 
  "license": null, 
  "maintainer": "Bernice Biong", 
  "maintainer_email": "bernicebiongofdotc@gmail.com", 
  "name": "air-transportation-round-trip-aircraft-movement-for-cy-2007", 
  "notes": "Contains annual data on roundtrip aircraft movement in all Philippine airports for the year 2007.", 
  "relationships": [], 
  "resources": [
    {
      "cache_last_updated": null, 
      "cache_url": null, 
      "created": "2013-12-10T08:11:04.425117", 
      "description": "", 
      "format": "CSV", 
      "hash": "", 
      "id": "0f211563-40f0-4ef4-9457-d74e44ac6d2c", 
      "last_modified": null, 
      "mimetype": null, 
      "mimetype_inner": null, 
      "name": "DOTC-AirpasscarANNUAL ss roundtrip-2007.csv", 
      "package_id": "69a03dc1-2b32-48b9-8cac-4e26e6b8c5ce", 
      "position": 0, 
      "resource_group_id": "d3ca8480-e0e4-47d1-bd18-f12322e876b3", 
      "resource_type": "file.upload", 
      "size": null, 
      "tracking_summary": {
        "recent": 0, 
        "total": 0
      }, 
      "url": "http://data.gov.ph/catalogue/storage/f/2013-12-10T08%3A09%3A47.996Z/dotc-airpasscarannual-ss-roundtrip-2007.csv", 
      "webstore_last_updated": null, 
      "webstore_url": null
    }
  ], 
  "tags": [
    "actual traffic", 
    "airport", 
    "domestic airport", 
    "international airports", 
    "nationwide", 
    "round trip", 
    "traffic data", 
    "transportation"
  ], 
  "title": "Air Transportation Round Trip Aircraft Movement for CY 2007", 
  "url": null, 
  "version": null
}