{
  "author": "Department of Transportation and Communications", 
  "author_email": "http://www.dotc.gov.ph/", 
  "download_url": "http://data.insomnation.com/catalogue/storage/f/2013-12-10T06%3A38%3A40.582Z/dotc-airpasscarannual-ss-one-way-2012.csv", 
  "extras": {
    "Agency Code": "01 001 00 0000", 
    "Agency Name": "CONGRESS OF THE PHILIPPINES | Senate-Proper", 
    "CONTACT NUMBER": "+632727.7960 to 69", 
    "Category": "Transport and Traffic", 
    "Data Dictionary": "", 
    "Data Quality": "yes", 
    "Download URL": "", 
    "Endpoint": "", 
    "Frequency of Update": "Annually", 
    "Granularity": "Province", 
    "Homepage URL": "http://www.dotc.gov.ph/", 
    "Language": "English", 
    "RSS Feed": "", 
    "Release Date": "2013-12-11", 
    "Size": "0.0146484", 
    "Spatial": "yes", 
    "System of Records": "", 
    "Temporal-end": "2012-12-31", 
    "Temporal-start": "2012-01-01", 
    "Unique Identifer": "DOTC-2013-044"
  }, 
  "id": "bd991b14-4203-4ba4-a0f6-390e1aec0705", 
  "license": null, 
  "maintainer": "Bernice Biong", 
  "maintainer_email": "bernicebiongofdotc@gmail.com", 
  "name": "air-transportation-one-way-aircraft-movement-for-cy-2012", 
  "notes": "Contains annual data on one way aircraft movements in all Philippine airports for the year 2012.\r\n", 
  "relationships": [], 
  "resources": [
    {
      "cache_last_updated": null, 
      "cache_url": null, 
      "created": "2013-12-10T06:39:47.031060", 
      "description": "", 
      "format": "XLS", 
      "hash": "", 
      "id": "02b8bc8c-13b1-43e9-b358-07e8f87ef8c8", 
      "last_modified": null, 
      "mimetype": null, 
      "mimetype_inner": null, 
      "name": "DOTC-AirpasscarANNUAL ss one way-2012.csv", 
      "package_id": "bd991b14-4203-4ba4-a0f6-390e1aec0705", 
      "position": 0, 
      "resource_group_id": "648d4332-4ee4-415d-978d-b55ebd5fa341", 
      "resource_type": "file.upload", 
      "size": null, 
      "tracking_summary": {
        "recent": 0, 
        "total": 0
      }, 
      "url": "http://data.gov.ph/catalogue/storage/f/2013-12-10T06%3A38%3A40.582Z/dotc-airpasscarannual-ss-one-way-2012.csv", 
      "webstore_last_updated": null, 
      "webstore_url": null
    }
  ], 
  "tags": [
    "Aircraft Transportation", 
    "actual traffic", 
    "air traffic", 
    "aircraft movement", 
    "airport", 
    "domestic airport", 
    "international airport", 
    "nationwide", 
    "one way", 
    "traffic data"
  ], 
  "title": "Air Transportation One Way Aircraft Movement for CY 2012", 
  "url": null, 
  "version": null
}