{
  "author": "Department of Environment and Natural Resources", 
  "author_email": "http://www.denr.gov.ph/", 
  "download_url": "http://www.geoportal.gov.ph/?p=%7B%22g%22%3A%5B13489979.862644%2C1588830.843243%2C1%2C%22Philippine%20Geoportal%20Basemap%22%5D%2C%22l%22%3A%5B%5B%22Proclaimed%20watersheds%22%2C%22geoportal%3Adenr_procwatershed%22%2C1%2C%22ProclaimedWatersheds%22%2C0%2Cnull%5D%5D%7D", 
  "extras": {
    "Agency Code": "10 004 00 0000", 
    "Agency Name": "DEPARTMENT OF ENVIRONMENT AND NATURAL RESOURCES | National Mapping and Resource Information Authority", 
    "CONTACT NUMBER": "+63202) 929-66-26", 
    "Category": "Environment and Climate", 
    "Data Dictionary": "", 
    "Data Quality": "yes", 
    "Download URL": "http://www.geoportal.gov.ph/?p=%7B%22g%22%3A%5B13489979.862644%2C1588830.843243%2C1%2C%22Philippine%20Geoportal%20Basemap%22%5D%2C%22l%22%3A%5B%5B%22Proclaimed%20watersheds%22%2C%22geoportal%3Adenr_procwatershed%22%2C1%2C%22ProclaimedWatersheds%22%2C0%2Cnull%5D%5D%7D", 
    "Endpoint": "", 
    "Frequency of Update": "Annually", 
    "Granularity": "Country", 
    "Homepage URL": "http://www.namria.gov.ph/", 
    "Language": "English", 
    "RSS Feed": "", 
    "Release Date": "2013-12-17", 
    "Size": "", 
    "Spatial": "no", 
    "System of Records": "", 
    "Temporal-end": "", 
    "Temporal-start": "", 
    "Unique Identifer": "NAMRIA-2013-044"
  }, 
  "id": "d9ee0418-46d7-4d32-b241-cb063bc373a2", 
  "license": null, 
  "maintainer": "Ramon JP. Paje", 
  "maintainer_email": "http://www.denr.gov.ph", 
  "name": "proclaimed-watershed", 
  "notes": "The DENR - Proclaimed Watersheds is a fundamental dataset uploaded to the Philippine Geoportal System (www.geoportal.gov.ph).  The dataset was shared to the portal by the Department of Environment and Natural Resources.", 
  "relationships": [], 
  "resources": [
    {
      "cache_last_updated": null, 
      "cache_url": null, 
      "created": "2013-12-16T02:04:53.909570", 
      "description": "", 
      "format": "PDF", 
      "hash": "", 
      "id": "6f4f4230-e2e3-424f-9f49-e39cabd615a5", 
      "last_modified": null, 
      "mimetype": null, 
      "mimetype_inner": null, 
      "name": "Proclaimed Watershed", 
      "package_id": "d9ee0418-46d7-4d32-b241-cb063bc373a2", 
      "position": 0, 
      "resource_group_id": "49134085-bb49-4487-a203-50c18747c0bd", 
      "resource_type": "file", 
      "size": null, 
      "tracking_summary": {
        "recent": 0, 
        "total": 0
      }, 
      "url": "http://www.geoportal.gov.ph/?p=%7B%22g%22%3A%5B13489979.862644%2C1588830.843243%2C1%2C%22Philippine%20Geoportal%20Basemap%22%5D%2C%22l%22%3A%5B%5B%22Proclaimed%20watersheds%22%2C%22geoportal%3Adenr_procwatershed%22%2C1%2C%22ProclaimedWatersheds%22%2C0%2Cnull%5D%5D%7D", 
      "webstore_last_updated": null, 
      "webstore_url": null
    }
  ], 
  "tags": [
    "namria", 
    "ph", 
    "proclaimed watershed", 
    "watershed"
  ], 
  "title": "Proclaimed Watershed", 
  "url": null, 
  "version": null
}