{
  "author": "Bangko Sentral ng Pilipinas", 
  "author_email": "bspmail@bsp.gov.ph", 
  "download_url": "http://www.bsp.gov.ph/banking/pbs_archives/2010/3.xls", 
  "extras": {
    "Agency Code": "01 001 00 0000", 
    "Agency Name": "CONGRESS OF THE PHILIPPINES | Senate-Proper", 
    "CONTACT NUMBER": "(+632) 708-7559  or (+632) 708-7701 local 3045 or 3046", 
    "Category": "Economics and Labor", 
    "Data Dictionary": "http://www.bsp.gov.ph/banking/glossary.asp", 
    "Data Quality": "yes", 
    "Download URL": "http://www.bsp.gov.ph/banking/pbs_archives/2010/3.xls", 
    "Endpoint": "", 
    "Frequency of Update": "Quarterly", 
    "Granularity": "Country", 
    "Homepage URL": "http://www.bsp.gov.ph", 
    "Language": "English", 
    "RSS Feed": "", 
    "Release Date": "12/10/2013", 
    "Size": ".207", 
    "Spatial": "no", 
    "System of Records": "Banking Statistics", 
    "Temporal-end": "12/31/2010", 
    "Temporal-start": "01/01/2010", 
    "Unique Identifer": "BSP-2013-027"
  }, 
  "id": "028df716-2966-4480-82b7-a203807d7e04", 
  "license": null, 
  "maintainer": "Director Vicente T. De Villa III", 
  "maintainer_email": "VdeVilla@bsp.gov.ph", 
  "name": "balance-sheet-and-key-ratios-of-philippine-banking-system-2010", 
  "notes": "Balance Sheet/Consolidated Statement of Condition and Key Ratios of Philippine Banking System", 
  "relationships": [], 
  "resources": [
    {
      "cache_last_updated": null, 
      "cache_url": null, 
      "created": "2013-12-08T16:20:48.049716", 
      "description": "", 
      "format": "XLS", 
      "hash": "", 
      "id": "df63547d-dea1-43b0-8efa-c4e793894e90", 
      "last_modified": null, 
      "mimetype": null, 
      "mimetype_inner": null, 
      "name": "Balance Sheet and Key Ratios of Philippine Banking System 2010", 
      "package_id": "028df716-2966-4480-82b7-a203807d7e04", 
      "position": 0, 
      "resource_group_id": "312ed1d0-67ca-42c6-9ede-c9ff829377f4", 
      "resource_type": "file", 
      "size": null, 
      "tracking_summary": {
        "recent": 0, 
        "total": 0
      }, 
      "url": "http://www.bsp.gov.ph/banking/pbs_archives/2010/3.xls", 
      "webstore_last_updated": null, 
      "webstore_url": null
    }
  ], 
  "tags": [
    "BS", 
    "CSOC", 
    "balance sheet", 
    "consolidated statement of condition", 
    "key ratios", 
    "statement of condition"
  ], 
  "title": "Balance Sheet and Key Ratios of Philippine Banking System 2010", 
  "url": null, 
  "version": null
}