{
  "author": "Commission on Higher Education", 
  "author_email": "http://www.ched.gov.ph/", 
  "download_url": "http://data.insomnation.com/catalogue/storage/f/2013-12-09T05%3A08%3A55.155Z/ched-higher-education-enrollment-by-discipline-group-and-academic-year-2003-to-2013.csv", 
  "extras": {
    "Agency Code": "01 001 00 0000", 
    "Agency Name": "CONGRESS OF THE PHILIPPINES | Senate-Proper", 
    "CONTACT NUMBER": "(+632) 441-1149 loc 128", 
    "Category": "Economics and Labor", 
    "Data Dictionary": "", 
    "Data Quality": "yes", 
    "Download URL": "", 
    "Endpoint": "", 
    "Frequency of Update": "Annually", 
    "Granularity": "Country", 
    "Homepage URL": "http://www.ched.gov.ph/chedwww/index.php/eng/Information/Statistics", 
    "Language": "English", 
    "RSS Feed": "", 
    "Release Date": "2013-12-10", 
    "Size": "0.0185547", 
    "Spatial": "no", 
    "System of Records": "", 
    "Temporal-end": "2013-01-01", 
    "Temporal-start": "2003-01-01", 
    "Unique Identifer": "CHED-2013-004"
  }, 
  "id": "45bcf6c0-3294-42c2-8b5d-8f53427849e8", 
  "license": "License Not Specified", 
  "maintainer": "Office of Planning, Research and Knowledge Management - Knowledge Management Division ", 
  "maintainer_email": "gatienza@ched.gov.ph", 
  "name": "enrollment-by-discipline-group-and-academic-year-2003-to-2013", 
  "notes": "This dataset contains the higher education enrollment by discipline for AY 2003/04 - AY 2012/13.", 
  "relationships": [], 
  "resources": [
    {
      "cache_last_updated": null, 
      "cache_url": null, 
      "created": "2013-12-09T05:10:25.912361", 
      "description": "", 
      "format": "XLS", 
      "hash": "", 
      "id": "74dbfa9e-3db6-434a-a921-def551623de3", 
      "last_modified": null, 
      "mimetype": null, 
      "mimetype_inner": null, 
      "name": "CHED-Higher Education Enrollment by Discipline Group and Academic Year-2003 to 2013.csv", 
      "package_id": "45bcf6c0-3294-42c2-8b5d-8f53427849e8", 
      "position": 0, 
      "resource_group_id": "da535ca6-feb4-466b-98a2-ce89297cdd88", 
      "resource_type": "file.upload", 
      "size": null, 
      "tracking_summary": {
        "recent": 0, 
        "total": 0
      }, 
      "url": "http://data.gov.ph/catalogue/storage/f/2013-12-09T05%3A08%3A55.155Z/ched-higher-education-enrollment-by-discipline-group-and-academic-year-2003-to-2013.csv", 
      "webstore_last_updated": null, 
      "webstore_url": null
    }, 
    {
      "cache_last_updated": null, 
      "cache_url": null, 
      "created": "2013-12-09T05:12:10.427098", 
      "description": "", 
      "format": "XLS", 
      "hash": "", 
      "id": "e491f79c-2c0e-43b7-b5a2-59244a260a48", 
      "last_modified": null, 
      "mimetype": null, 
      "mimetype_inner": null, 
      "name": "CHED-Higher Education Enrollment by Discipline Group and Academic Year-2003 to 2013.csv", 
      "package_id": "45bcf6c0-3294-42c2-8b5d-8f53427849e8", 
      "position": 1, 
      "resource_group_id": "da535ca6-feb4-466b-98a2-ce89297cdd88", 
      "resource_type": "file.upload", 
      "size": null, 
      "tracking_summary": {
        "recent": 0, 
        "total": 0
      }, 
      "url": "http://data.gov.ph/catalogue/storage/f/2013-12-09T05%3A11%3A02.775Z/ched-higher-education-enrollment-by-discipline-group-and-academic-year-2003-to-2013.csv", 
      "webstore_last_updated": null, 
      "webstore_url": null
    }
  ], 
  "tags": [
    "Discipline", 
    "Enrollment"
  ], 
  "title": "Enrollment by Discipline Group and Academic Year 2003 to 2013", 
  "url": null, 
  "version": null
}