{
  "author": "National Economic and Development Authority", 
  "author_email": "http://www.neda.gov.ph/", 
  "download_url": "http://data.insomnation.com/catalogue/storage/f/2014-01-03T02%3A59%3A43.795Z/22-may-2013-neda-updates.csv", 
  "extras": {
    "Agency Code": "24 003 00 0000", 
    "Agency Name": "NATIONAL ECONOMIC DEVELOPMENT AUTHORITY | National Statistics Office", 
    "CONTACT NUMBER": "(+632) 727-7960", 
    "Category": "Economics and Labor", 
    "Data Dictionary": "", 
    "Data Quality": "yes", 
    "Download URL": "", 
    "Endpoint": "", 
    "Frequency of Update": "Annually", 
    "Granularity": "Country", 
    "Homepage URL": "http://www.neda.gov.ph/", 
    "Language": "English", 
    "RSS Feed": "", 
    "Release Date": "2014-01-04", 
    "Size": "0.0070898437", 
    "Spatial": "no", 
    "System of Records": "", 
    "Temporal-end": "2013-05-22", 
    "Temporal-start": "2013-01-01", 
    "Unique Identifer": "NEDA-2013-017"
  }, 
  "id": "e4155d7c-02c2-4643-8454-34ce1571523a", 
  "license": null, 
  "maintainer": "Jenny Rose C. Espiritu ", 
  "maintainer_email": "JCEspiritu@neda.gov.ph", 
  "name": "22-may-2013-neda-updates", 
  "notes": "This dataset contains the NEDA Updates for May 22, 2013", 
  "relationships": [], 
  "resources": [
    {
      "cache_last_updated": null, 
      "cache_url": null, 
      "created": "2014-01-03T03:01:13.933832", 
      "description": "", 
      "format": "XLS", 
      "hash": "", 
      "id": "542b4dc2-95e3-4b03-8b35-2bd971ba49c5", 
      "last_modified": null, 
      "mimetype": null, 
      "mimetype_inner": null, 
      "name": "22 May 2013 NEDA Updates.csv", 
      "package_id": "e4155d7c-02c2-4643-8454-34ce1571523a", 
      "position": 0, 
      "resource_group_id": "52b76104-42bf-4196-b807-6ea662f8980e", 
      "resource_type": "file.upload", 
      "size": null, 
      "tracking_summary": {
        "recent": 0, 
        "total": 0
      }, 
      "url": "http://data.gov.ph/catalogue/storage/f/2014-01-03T02%3A59%3A43.795Z/22-may-2013-neda-updates.csv", 
      "webstore_last_updated": null, 
      "webstore_url": null
    }
  ], 
  "tags": [
    "NEDA", 
    "NEDA Updates", 
    "NEDA Updates May 22 2013"
  ], 
  "title": "22 May 2013 NEDA Updates", 
  "url": null, 
  "version": null
}