{
  "author": "Department of Environment and Natural Resources", 
  "author_email": "http://www.denr.gov.ph/", 
  "download_url": "http://data.insomnation.com/catalogue/storage/f/2013-12-12T04%3A27%3A06.328Z/12-209-flgma-and-permit.csv", 
  "extras": {
    "Agency Code": "10 002 00 0000", 
    "Agency Name": "DEPARTMENT OF ENVIRONMENT AND NATURAL RESOURCES | Environmental Management Bureau", 
    "CONTACT NUMBER": "(+632)929-6626 to 29;", 
    "Category": "Environment and Climate", 
    "Data Dictionary": "", 
    "Data Quality": "yes", 
    "Download URL": "", 
    "Endpoint": "", 
    "Frequency of Update": "Annually", 
    "Granularity": "Province", 
    "Homepage URL": "http://www.denr.gov.ph/", 
    "Language": "English", 
    "RSS Feed": "", 
    "Release Date": "2013-12-13", 
    "Size": "0.001376953", 
    "Spatial": "yes", 
    "System of Records": "", 
    "Temporal-end": "2012-12-31", 
    "Temporal-start": "2012-01-01", 
    "Unique Identifer": "DENR-2013-040"
  }, 
  "id": "bce0ead2-59d8-49d8-adfb-73cb344825f1", 
  "license": null, 
  "maintainer": "Roberto L. de Leon ", 
  "maintainer_email": "RLdeleon@denr.gov.ph", 
  "name": "forest-land-grazing-management-agreements-by-province-2012", 
  "notes": "This dataset contains the forest land grazing management agreements by province for the year 2012.", 
  "relationships": [], 
  "resources": [
    {
      "cache_last_updated": null, 
      "cache_url": null, 
      "created": "2013-12-12T04:29:55.203269", 
      "description": "", 
      "format": "XLS", 
      "hash": "", 
      "id": "87b25982-d4ed-4f02-9610-f87a5ed13073", 
      "last_modified": null, 
      "mimetype": null, 
      "mimetype_inner": null, 
      "name": "12-209-FLGMA-and-Permit.csv", 
      "package_id": "bce0ead2-59d8-49d8-adfb-73cb344825f1", 
      "position": 0, 
      "resource_group_id": "7b532ff9-9841-41f9-94fd-18c4e4f2df03", 
      "resource_type": "file.upload", 
      "size": null, 
      "tracking_summary": {
        "recent": 0, 
        "total": 0
      }, 
      "url": "http://data.gov.ph/catalogue/storage/f/2013-12-12T04%3A27%3A06.328Z/12-209-flgma-and-permit.csv", 
      "webstore_last_updated": null, 
      "webstore_url": null
    }
  ], 
  "tags": [
    "forest land  grazing agreements by province 2012"
  ], 
  "title": "FOREST LAND GRAZING MANAGEMENT AGREEMENTS BY PROVINCE 2012", 
  "url": null, 
  "version": null
}