{
  "author": "Department of Environment and Natural Resources", 
  "author_email": "http://www.denr.gov.ph/", 
  "download_url": "http://data.insomnation.com/catalogue/storage/f/2013-12-12T02%3A46%3A59.732Z/prices-lumber-2012.csv", 
  "extras": {
    "Agency Code": "10 002 00 0000", 
    "Agency Name": "DEPARTMENT OF ENVIRONMENT AND NATURAL RESOURCES | Environmental Management Bureau", 
    "CONTACT NUMBER": "(+632)527-3000 loc 317; 09062545776", 
    "Category": "Environment and Climate", 
    "Data Dictionary": "", 
    "Data Quality": "yes", 
    "Download URL": "", 
    "Endpoint": "", 
    "Frequency of Update": "Annually", 
    "Granularity": "Country", 
    "Homepage URL": "http://www.denr.gov.ph/", 
    "Language": "English", 
    "RSS Feed": "", 
    "Release Date": "2013-12-13", 
    "Size": "0.0030957031", 
    "Spatial": "yes", 
    "System of Records": "", 
    "Temporal-end": "2012-12-31", 
    "Temporal-start": "2012-01-01", 
    "Unique Identifer": "DENR-2013-026"
  }, 
  "id": "fbb1cc4b-6b85-4198-9e2b-65f2990c5cb6", 
  "license": null, 
  "maintainer": "Roberto L. de Leon ", 
  "maintainer_email": "RLdeleon@denr.gov.ph", 
  "name": "average-domestic-price-of-lumber-2012", 
  "notes": "This dataset contains the average domestic price of kumber for the year 2012.", 
  "relationships": [], 
  "resources": [
    {
      "cache_last_updated": null, 
      "cache_url": null, 
      "created": "2013-12-12T02:48:06.834755", 
      "description": "", 
      "format": "XLS", 
      "hash": "", 
      "id": "18f35fe5-07c1-4810-a8e6-78bb063a5022", 
      "last_modified": null, 
      "mimetype": null, 
      "mimetype_inner": null, 
      "name": "prices-lumber 2012.csv", 
      "package_id": "fbb1cc4b-6b85-4198-9e2b-65f2990c5cb6", 
      "position": 0, 
      "resource_group_id": "8fcada62-fa7e-48bd-bb75-1326fda368c6", 
      "resource_type": "file.upload", 
      "size": null, 
      "tracking_summary": {
        "recent": 0, 
        "total": 0
      }, 
      "url": "http://data.gov.ph/catalogue/storage/f/2013-12-12T02%3A46%3A59.732Z/prices-lumber-2012.csv", 
      "webstore_last_updated": null, 
      "webstore_url": null
    }
  ], 
  "tags": [
    "lumber price 2012"
  ], 
  "title": "AVERAGE DOMESTIC PRICE OF LUMBER 2012", 
  "url": null, 
  "version": null
}