{
  "author": "Department of Environment and Natural Resources", 
  "author_email": "http://www.denr.gov.ph/", 
  "download_url": "http://data.insomnation.com/catalogue/storage/f/2013-12-11T06%3A26%3A20.782Z/log-prod-2013.csv", 
  "extras": {
    "Agency Code": "10 002 00 0000", 
    "Agency Name": "DEPARTMENT OF ENVIRONMENT AND NATURAL RESOURCES | Environmental Management Bureau", 
    "CONTACT NUMBER": "+632929-6626 to 29;", 
    "Category": "Environment and Climate", 
    "Data Dictionary": "", 
    "Data Quality": "yes", 
    "Download URL": "", 
    "Endpoint": "", 
    "Frequency of Update": "Annually", 
    "Granularity": "Country", 
    "Homepage URL": "http://www.denr.gov.ph/", 
    "Language": "English", 
    "RSS Feed": "", 
    "Release Date": "2013-12-12", 
    "Size": "0.0009565353417969", 
    "Spatial": "yes", 
    "System of Records": "", 
    "Temporal-end": "2013-06-30", 
    "Temporal-start": "2012-01-01", 
    "Unique Identifer": "DENR-2013-001"
  }, 
  "id": "7ce2336c-9589-42db-a366-bd4bf684e848", 
  "license": null, 
  "maintainer": "Roberto L. de Leon", 
  "maintainer_email": "RLdeleon@denr.gov.ph", 
  "name": "2013-log-production", 
  "notes": "This dataset contains the log production for the year 2013.", 
  "relationships": [], 
  "resources": [
    {
      "cache_last_updated": null, 
      "cache_url": null, 
      "created": "2013-12-11T06:27:33.775324", 
      "description": "", 
      "format": "XLS", 
      "hash": "", 
      "id": "ecdcd793-09c4-4b8b-91a9-a4fa42559ced", 
      "last_modified": null, 
      "mimetype": null, 
      "mimetype_inner": null, 
      "name": "log-prod-2013.csv", 
      "package_id": "7ce2336c-9589-42db-a366-bd4bf684e848", 
      "position": 0, 
      "resource_group_id": "94736081-27cd-42a4-a818-5977c6b22d35", 
      "resource_type": "file.upload", 
      "size": null, 
      "tracking_summary": {
        "recent": 0, 
        "total": 0
      }, 
      "url": "http://data.gov.ph/catalogue/storage/f/2013-12-11T06%3A26%3A20.782Z/log-prod-2013.csv", 
      "webstore_last_updated": null, 
      "webstore_url": null
    }
  ], 
  "tags": [
    "log", 
    "log production"
  ], 
  "title": "2013 Log Production", 
  "url": null, 
  "version": null
}