{
  "author": "Bangko Sentral ng Pilipinas", 
  "author_email": "bspmail@bsp.gov.ph", 
  "download_url": "http://www.bsp.gov.ph/banking/pbs_archives/2009/48.xls", 
  "extras": {
    "Agency Code": "01 001 00 0000", 
    "Agency Name": "CONGRESS OF THE PHILIPPINES | Senate-Proper", 
    "CONTACT NUMBER": "(+632) 708-7559  or (+632) 708-7701 local 3045 or 3046", 
    "Category": "Economics and Labor", 
    "Data Dictionary": "http://www.bsp.gov.ph/banking/glossary.asp", 
    "Data Quality": "yes", 
    "Download URL": "http://www.bsp.gov.ph/banking/pbs_archives/2009/48.xls", 
    "Endpoint": "", 
    "Frequency of Update": "Quarterly", 
    "Granularity": "Country", 
    "Homepage URL": "http://www.bsp.gov.ph", 
    "Language": "English", 
    "RSS Feed": "", 
    "Release Date": "12/11/2013", 
    "Size": ".226", 
    "Spatial": "no", 
    "System of Records": "Banking Statistics", 
    "Temporal-end": "12/31/2009", 
    "Temporal-start": "01/01/2009", 
    "Unique Identifer": "BSP-2013-046"
  }, 
  "id": "a184291c-a391-4429-8456-93b3c823be47", 
  "license": null, 
  "maintainer": "Director Vicente T. De Villa III", 
  "maintainer_email": "VdeVilla@bsp.gov.ph", 
  "name": "balance-sheet-and-key-ratios-of-rural-and-cooperative-banking-system-2009", 
  "notes": "Balance Sheet/Consolidated Statement of Condition and Key Ratios of Rural and Cooperative Banking System 2009", 
  "relationships": [], 
  "resources": [
    {
      "cache_last_updated": null, 
      "cache_url": null, 
      "created": "2013-12-10T04:04:21.034535", 
      "description": "", 
      "format": "XLS", 
      "hash": "", 
      "id": "73baac89-8dec-4540-a597-253a9cc6793c", 
      "last_modified": null, 
      "mimetype": null, 
      "mimetype_inner": null, 
      "name": "Balance Sheet and Key Ratios of Rural and Cooperative Banking System 2009", 
      "package_id": "a184291c-a391-4429-8456-93b3c823be47", 
      "position": 0, 
      "resource_group_id": "852f7ce4-7289-4893-8e5d-4a81e6a7e4e3", 
      "resource_type": "file", 
      "size": null, 
      "tracking_summary": {
        "recent": 0, 
        "total": 0
      }, 
      "url": "http://www.bsp.gov.ph/banking/pbs_archives/2009/48.xls", 
      "webstore_last_updated": null, 
      "webstore_url": null
    }
  ], 
  "tags": [
    "BS", 
    "CSOC", 
    "balance sheet", 
    "consolidated statement of condition", 
    "key ratios", 
    "statement of condition"
  ], 
  "title": "Balance Sheet and Key Ratios of Rural and Cooperative Banking System 2009", 
  "url": null, 
  "version": null
}