{
  "author": "Department of Environment and Natural Resources", 
  "author_email": "http://www.denr.gov.ph/", 
  "download_url": "http://data.insomnation.com/catalogue/storage/f/2013-12-12T02%3A18%3A22.942Z/prices-lumber-2007.csv", 
  "extras": {
    "Agency Code": "10 002 00 0000", 
    "Agency Name": "DEPARTMENT OF ENVIRONMENT AND NATURAL RESOURCES | Environmental Management Bureau", 
    "CONTACT NUMBER": "(+632)929-6626 to 29;", 
    "Category": "Environment and Climate", 
    "Data Dictionary": "", 
    "Data Quality": "yes", 
    "Download URL": "", 
    "Endpoint": "", 
    "Frequency of Update": "Annually", 
    "Granularity": "Country", 
    "Homepage URL": "http://www.denr.gov.ph/", 
    "Language": "English", 
    "RSS Feed": "", 
    "Release Date": "2013-12-13", 
    "Size": "0.002548828", 
    "Spatial": "yes", 
    "System of Records": "", 
    "Temporal-end": "2007-12-31", 
    "Temporal-start": "2007-01-01", 
    "Unique Identifer": "DENR-2013-021"
  }, 
  "id": "da030086-4844-4802-9eec-ff38564303a0", 
  "license": null, 
  "maintainer": "Roberto L. de Leon", 
  "maintainer_email": "RLdeleon@denr.gov.ph", 
  "name": "average-domestic-price-of-lumber-2007", 
  "notes": "This dataset contains the average domestic price of lumber for the year 2007.", 
  "relationships": [], 
  "resources": [
    {
      "cache_last_updated": null, 
      "cache_url": null, 
      "created": "2013-12-12T02:19:25.324794", 
      "description": "", 
      "format": "XLS", 
      "hash": "", 
      "id": "b2acd60c-7e8b-4cb5-ac1a-c7352ae265b6", 
      "last_modified": null, 
      "mimetype": null, 
      "mimetype_inner": null, 
      "name": "prices-lumber 2007.csv", 
      "package_id": "da030086-4844-4802-9eec-ff38564303a0", 
      "position": 0, 
      "resource_group_id": "1e56e178-4e6e-49c8-b12e-dc4a2bee3cce", 
      "resource_type": "file.upload", 
      "size": null, 
      "tracking_summary": {
        "recent": 0, 
        "total": 0
      }, 
      "url": "http://data.gov.ph/catalogue/storage/f/2013-12-12T02%3A18%3A22.942Z/prices-lumber-2007.csv", 
      "webstore_last_updated": null, 
      "webstore_url": null
    }
  ], 
  "tags": [
    "lumber prices 2007"
  ], 
  "title": "AVERAGE DOMESTIC PRICE OF LUMBER 2007", 
  "url": null, 
  "version": null
}