{
  "author": "Department of Environment and Natural Resources", 
  "author_email": "http://www.denr.gov.ph/", 
  "download_url": "http://data.insomnation.com/catalogue/storage/f/2013-12-12T02%3A13%3A12.914Z/prices-lumber-2006.csv", 
  "extras": {
    "Agency Code": "10 002 00 0000", 
    "Agency Name": "DEPARTMENT OF ENVIRONMENT AND NATURAL RESOURCES | Environmental Management Bureau", 
    "CONTACT NUMBER": "(+632)929-6626 to 29;", 
    "Category": "Environment and Climate", 
    "Data Dictionary": "", 
    "Data Quality": "yes", 
    "Download URL": "", 
    "Endpoint": "", 
    "Frequency of Update": "Annually", 
    "Granularity": "Country", 
    "Homepage URL": "http://www.denr.gov.ph/", 
    "Language": "English", 
    "RSS Feed": "", 
    "Release Date": "20013-12-13", 
    "Size": "0.003330078", 
    "Spatial": "yes", 
    "System of Records": "", 
    "Temporal-end": "2006-12-13", 
    "Temporal-start": "2006-01-01", 
    "Unique Identifer": "DENR-2013-020"
  }, 
  "id": "3857f104-4b5b-4312-ba7e-e201c45104eb", 
  "license": null, 
  "maintainer": "Roberto L. de Leon ", 
  "maintainer_email": "RLdeleon@denr.gov.ph", 
  "name": "average-domestic-price-of-lumber-2006", 
  "notes": "This dataset contains the average domestic price of lumber for the year 2006. ", 
  "relationships": [], 
  "resources": [
    {
      "cache_last_updated": null, 
      "cache_url": null, 
      "created": "2013-12-12T02:14:15.254825", 
      "description": "", 
      "format": "XLS", 
      "hash": "", 
      "id": "e9384200-ee7d-498d-bb46-3f3b80d2e846", 
      "last_modified": null, 
      "mimetype": null, 
      "mimetype_inner": null, 
      "name": "prices-lumber 2006.csv", 
      "package_id": "3857f104-4b5b-4312-ba7e-e201c45104eb", 
      "position": 0, 
      "resource_group_id": "9e6d0f9e-8ac7-4103-86b1-345520d16622", 
      "resource_type": "file.upload", 
      "size": null, 
      "tracking_summary": {
        "recent": 0, 
        "total": 0
      }, 
      "url": "http://data.gov.ph/catalogue/storage/f/2013-12-12T02%3A13%3A12.914Z/prices-lumber-2006.csv", 
      "webstore_last_updated": null, 
      "webstore_url": null
    }
  ], 
  "tags": [
    "lumber prices 2006"
  ], 
  "title": "AVERAGE DOMESTIC PRICE OF LUMBER 2006", 
  "url": null, 
  "version": null
}