{
  "author": "Office of the Civil Defense ", 
  "author_email": "http://ocd.gov.ph/", 
  "download_url": "http://www.geoportal.gov.ph/?p=%7B%22g%22%3A%5B13478029.682%2C1641148.4546%2C5%2C%22Philippine%20Geoportal%20Basemap%22%5D%2C%22l%22%3A%5B%5B%22Ground%20Shaking%20Risk%20M7.2%20-%20Complete%20Damage%20State%20M7.2%20%28absolute%29%22%2C%22geoportal%3Arap_gsrisk_brgy_m7p2_webmercator%22%2C1%2C%22AbsoluteCompleteDamageStateM72%22%2C0%2Cnull%5D%5D%7D", 
  "extras": {
    "Agency Code": "10 004 00 0000", 
    "Agency Name": "DEPARTMENT OF ENVIRONMENT AND NATURAL RESOURCES | National Mapping and Resource Information Authority", 
    "CONTACT NUMBER": "+632(02) 421-19-26; (02) 912-66-75", 
    "Category": "Geography, Geology and Geodata", 
    "Data Dictionary": "", 
    "Data Quality": "yes", 
    "Download URL": "http://www.geoportal.gov.ph/?p=%7B%22g%22%3A%5B13478029.682%2C1641148.4546%2C5%2C%22Philippine%20Geoportal%20Basemap%22%5D%2C%22l%22%3A%5B%5B%22Ground%20Shaking%20Risk%20M7.2%20-%20Complete%20Damage%20State%20M7.2%20%28absolute%29%22%2C%22geoportal%3Arap_gsrisk_brgy_m7p2_webmercator%22%2C1%2C%22AbsoluteCompleteDamageStateM72%22%2C0%2Cnull%5D%5D%7D", 
    "Endpoint": "", 
    "Frequency of Update": "Other", 
    "Granularity": "Country", 
    "Homepage URL": "http://www.namria.gov.ph/", 
    "Language": "English", 
    "RSS Feed": "", 
    "Release Date": "2014-01-04", 
    "Size": "", 
    "Spatial": "no", 
    "System of Records": "", 
    "Temporal-end": "", 
    "Temporal-start": "", 
    "Unique Identifer": "NAMRIA-2013-146"
  }, 
  "id": "fb5a70dd-9912-455a-8bcd-49e13e5580fc", 
  "license": null, 
  "maintainer": "Eduardo D. Del Rosario", 
  "maintainer_email": "http://ocd.gov.ph/", 
  "name": "ground-shaking-risk-m7-2-complete-damage-state-m7-2-absolute", 
  "notes": "Ground shaking risk M7.2 - Complete Damage State M7.2 (absolute)  is a fundamental dataset uploaded to the Philippine Geoportal System (www.geoportal.gov.ph).  The dataset was shared to the portal by the Office of the Civil Defense.", 
  "relationships": [], 
  "resources": [
    {
      "cache_last_updated": null, 
      "cache_url": null, 
      "created": "2014-01-03T04:04:53.707983", 
      "description": "", 
      "format": "PDF", 
      "hash": "", 
      "id": "d3aa1f8f-de15-4141-a04b-f6cd82139d37", 
      "last_modified": null, 
      "mimetype": null, 
      "mimetype_inner": null, 
      "name": "Ground shaking risk M7.2 - Complete Damage State M7.2 (absolute)", 
      "package_id": "fb5a70dd-9912-455a-8bcd-49e13e5580fc", 
      "position": 0, 
      "resource_group_id": "76948d78-6aae-4653-9253-51ed4f97cb7b", 
      "resource_type": "file", 
      "size": null, 
      "tracking_summary": {
        "recent": 0, 
        "total": 0
      }, 
      "url": "http://www.geoportal.gov.ph/?p=%7B%22g%22%3A%5B13478029.682%2C1641148.4546%2C5%2C%22Philippine%20Geoportal%20Basemap%22%5D%2C%22l%22%3A%5B%5B%22Ground%20Shaking%20Risk%20M7.2%20-%20Complete%20Damage%20State%20M7.2%20%28absolute%29%22%2C%22geoportal%3Arap_gsrisk_brgy_m7p2_webmercator%22%2C1%2C%22AbsoluteCompleteDamageStateM72%22%2C0%2Cnull%5D%5D%7D", 
      "webstore_last_updated": null, 
      "webstore_url": null
    }
  ], 
  "tags": [
    "Complete Damage State", 
    "Ground shaking risk", 
    "Office of the Civil Defense", 
    "namria", 
    "ph"
  ], 
  "title": "Ground shaking risk M7.2 - Complete Damage State M7.2 (absolute)", 
  "url": null, 
  "version": null
}