{
  "author": "Bangko Sentral ng Pilipinas", 
  "author_email": "bspmail@bsp.gov.ph", 
  "download_url": "http://www.bsp.gov.ph/banking/pbs_archives/2010/49.xls", 
  "extras": {
    "Agency Code": "01 001 00 0000", 
    "Agency Name": "CONGRESS OF THE PHILIPPINES | Senate-Proper", 
    "CONTACT NUMBER": "(+632) 708-7559  or (+632) 708-7701 local 3045 or 3046", 
    "Category": "Economics and Labor", 
    "Data Dictionary": "http://www.bsp.gov.ph/banking/glossary.asp", 
    "Data Quality": "yes", 
    "Download URL": "http://www.bsp.gov.ph/banking/pbs_archives/2010/49.xls", 
    "Endpoint": "", 
    "Frequency of Update": "Quarterly", 
    "Granularity": "Country", 
    "Homepage URL": "http://www.bsp.gov.ph", 
    "Language": "English", 
    "RSS Feed": "", 
    "Release Date": "12/13/2013", 
    "Size": ".207", 
    "Spatial": "no", 
    "System of Records": "Banking Statistics", 
    "Temporal-end": "12/31/2010", 
    "Temporal-start": "01/01/2010", 
    "Unique Identifer": "BSP-2013-075"
  }, 
  "id": "54335c79-4f83-4459-a943-31d5e07e6411", 
  "license": null, 
  "maintainer": "Director Vicente T. De Villa III", 
  "maintainer_email": "VdeVilla@bsp.gov.ph", 
  "name": "income-statement-and-key-ratios-of-rural-and-cooperative-banking-system-2010", 
  "notes": "Income Statement/Consolidated Statement of Income and Expense, and Key Ratios of Rural and Cooperative Banking System", 
  "relationships": [], 
  "resources": [
    {
      "cache_last_updated": null, 
      "cache_url": null, 
      "created": "2013-12-12T09:01:55.876990", 
      "description": "", 
      "format": "XLS", 
      "hash": "", 
      "id": "05d142fb-8fc4-4e91-bd97-86d204f42c49", 
      "last_modified": null, 
      "mimetype": null, 
      "mimetype_inner": null, 
      "name": "Income Statement and Key Ratios of Rural and Cooperative Banking System 2010", 
      "package_id": "54335c79-4f83-4459-a943-31d5e07e6411", 
      "position": 0, 
      "resource_group_id": "3fe9d6ed-1dfe-4001-ad42-9e8e135c1467", 
      "resource_type": "file", 
      "size": null, 
      "tracking_summary": {
        "recent": 0, 
        "total": 0
      }, 
      "url": "http://www.bsp.gov.ph/banking/pbs_archives/2010/49.xls", 
      "webstore_last_updated": null, 
      "webstore_url": null
    }
  ], 
  "tags": [
    "CSIE", 
    "IS", 
    "consolidated system of income and expense", 
    "income and expense", 
    "income statement", 
    "key ratios"
  ], 
  "title": "Income Statement and Key Ratios of Rural and Cooperative Banking System 2010", 
  "url": null, 
  "version": null
}