{
  "author": "Bangko Sentral ng Pilipinas", 
  "author_email": "bspmail@bsp.gov.ph", 
  "download_url": "http://www.bsp.gov.ph/banking/pbs_archives/2011/4.xls", 
  "extras": {
    "Agency Code": "01 001 00 0000", 
    "Agency Name": "CONGRESS OF THE PHILIPPINES | Senate-Proper", 
    "CONTACT NUMBER": "(+632) 708-7559  or (+632) 708-7701 local 3045 or 3046", 
    "Category": "Economics and Labor", 
    "Data Dictionary": "http://www.bsp.gov.ph/banking/glossary.asp", 
    "Data Quality": "yes", 
    "Download URL": "http://www.bsp.gov.ph/banking/pbs_archives/2011/4.xls", 
    "Endpoint": "", 
    "Frequency of Update": "Quarterly", 
    "Granularity": "Country", 
    "Homepage URL": "http://www.bsp.gov.ph", 
    "Language": "English", 
    "RSS Feed": "", 
    "Release Date": "12/11/2013", 
    "Size": ".207", 
    "Spatial": "no", 
    "System of Records": "Banking Statistics", 
    "Temporal-end": "12/31/2011", 
    "Temporal-start": "01/01/2011", 
    "Unique Identifer": "BSP-2013-056"
  }, 
  "id": "4a6143c5-3e88-485f-9373-674e041283b9", 
  "license": null, 
  "maintainer": "Director Vicente T. De Villa III", 
  "maintainer_email": "VdeVilla@bsp.gov.ph", 
  "name": "income-statement-and-key-ratios-of-philippine-banking-system-2011", 
  "notes": "Income Statement/Consolidated Statement of Income and Expense, and Key Ratios of Philippine Banking System", 
  "relationships": [], 
  "resources": [
    {
      "cache_last_updated": null, 
      "cache_url": null, 
      "created": "2013-12-10T07:01:01.155778", 
      "description": "", 
      "format": "XLS", 
      "hash": "", 
      "id": "e36ea556-21a6-4094-9aa7-a5a45fa34726", 
      "last_modified": null, 
      "mimetype": null, 
      "mimetype_inner": null, 
      "name": "Income Statement and Key Ratios of Philippine Banking System 2011", 
      "package_id": "4a6143c5-3e88-485f-9373-674e041283b9", 
      "position": 0, 
      "resource_group_id": "01898551-8ed6-47dd-871b-77bddc2b0171", 
      "resource_type": "file", 
      "size": null, 
      "tracking_summary": {
        "recent": 0, 
        "total": 0
      }, 
      "url": "http://www.bsp.gov.ph/banking/pbs_archives/2011/4.xls", 
      "webstore_last_updated": null, 
      "webstore_url": null
    }
  ], 
  "tags": [
    "CSIE", 
    "IS", 
    "consolidated statement of income and expense", 
    "income and expense", 
    "income statement", 
    "key ratios"
  ], 
  "title": "Income Statement and Key Ratios of Philippine Banking System 2011", 
  "url": null, 
  "version": null
}