{
  "author": "Office of the Civil Defense ", 
  "author_email": "http://ocd.gov.ph/", 
  "download_url": "http://www.geoportal.gov.ph/?p=%7B%22g%22%3A%5B13476205.377988%2C1647039.2929932%2C4%2C%22Philippine%20Geoportal%20Basemap%22%5D%2C%22l%22%3A%5B%5B%22Ground%20Shaking%20Risk%20M6.5%20-%20Complete%20Damage%20State%20M6.5%20%28normalized%29%22%2C%22geoportal%3Arap_gsrisk_brgy_m6p5_webmercator%22%2C1%2C%22NormalizeCompleteDamageStateM65%22%2C0%2Cnull%5D%5D%7D", 
  "extras": {
    "Agency Code": "10 004 00 0000", 
    "Agency Name": "DEPARTMENT OF ENVIRONMENT AND NATURAL RESOURCES | National Mapping and Resource Information Authority", 
    "CONTACT NUMBER": "+632(02) 421-19-26; (02) 912-66-75", 
    "Category": "Geography, Geology and Geodata", 
    "Data Dictionary": "", 
    "Data Quality": "yes", 
    "Download URL": "http://www.geoportal.gov.ph/?p=%7B%22g%22%3A%5B13476205.377988%2C1647039.2929932%2C4%2C%22Philippine%20Geoportal%20Basemap%22%5D%2C%22l%22%3A%5B%5B%22Ground%20Shaking%20Risk%20M6.5%20-%20Complete%20Damage%20State%20M6.5%20%28normalized%29%22%2C%22geoportal%3Arap_gsrisk_brgy_m6p5_webmercator%22%2C1%2C%22NormalizeCompleteDamageStateM65%22%2C0%2Cnull%5D%5D%7D", 
    "Endpoint": "", 
    "Frequency of Update": "Other", 
    "Granularity": "Country", 
    "Homepage URL": "http://www.namria.gov.ph/", 
    "Language": "English", 
    "RSS Feed": "", 
    "Release Date": "2013-12-20", 
    "Size": "", 
    "Spatial": "no", 
    "System of Records": "", 
    "Temporal-end": "", 
    "Temporal-start": "", 
    "Unique Identifer": "NAMRIA-2013-128"
  }, 
  "id": "249a2b1f-20fb-44f0-81db-b158b4685ead", 
  "license": null, 
  "maintainer": "Eduardo D. Del Rosario", 
  "maintainer_email": "http://ocd.gov.ph/", 
  "name": "ground-shaking-risk-m6-5-complete-damage-state-m6-5-normalized", 
  "notes": "Ground shaking risk M6.5 - Complete Damage State M6.5 (normalized)  is a fundamental dataset uploaded to the Philippine Geoportal System (www.geoportal.gov.ph).  The dataset was shared to the portal by the Office of the Civil Defense.", 
  "relationships": [], 
  "resources": [
    {
      "cache_last_updated": null, 
      "cache_url": null, 
      "created": "2013-12-19T07:26:08.322778", 
      "description": "", 
      "format": "PDF", 
      "hash": "", 
      "id": "f8e1d92d-1acf-44d6-91a7-7e96361fa5b1", 
      "last_modified": null, 
      "mimetype": null, 
      "mimetype_inner": null, 
      "name": "Ground shaking risk M6.5 - Complete Damage State M6.5 (normalized)", 
      "package_id": "249a2b1f-20fb-44f0-81db-b158b4685ead", 
      "position": 0, 
      "resource_group_id": "9e9e5431-fcf5-4ea1-abc0-49f11b070575", 
      "resource_type": "file", 
      "size": null, 
      "tracking_summary": {
        "recent": 0, 
        "total": 0
      }, 
      "url": "http://www.geoportal.gov.ph/?p=%7B%22g%22%3A%5B13476205.377988%2C1647039.2929932%2C4%2C%22Philippine%20Geoportal%20Basemap%22%5D%2C%22l%22%3A%5B%5B%22Ground%20Shaking%20Risk%20M6.5%20-%20Complete%20Damage%20State%20M6.5%20%28normalized%29%22%2C%22geoportal%3Arap_gsrisk_brgy_m6p5_webmercator%22%2C1%2C%22NormalizeCompleteDamageStateM65%22%2C0%2Cnull%5D%5D%7D", 
      "webstore_last_updated": null, 
      "webstore_url": null
    }
  ], 
  "tags": [
    "Complete Damage State M6.5 normalized", 
    "namria", 
    "philippines"
  ], 
  "title": "Ground shaking risk M6.5 - Complete Damage State M6.5 (normalized)", 
  "url": null, 
  "version": null
}