{
  "author": "Department of Labor and Employment", 
  "author_email": "http://www.dole.gov.ph/", 
  "download_url": "http://data.insomnation.com/catalogue/storage/f/2013-12-09T08%3A20%3A20.846Z/dole-strike-lockout-notices-filed-actual-strikes-lockouts-workers-involved-and-mandays-lost-1937-to-2011.csv", 
  "extras": {
    "Agency Code": "01 001 00 0000", 
    "Agency Name": "CONGRESS OF THE PHILIPPINES | Senate-Proper", 
    "CONTACT NUMBER": "(+632)527-3000 loc 317; 09062545776", 
    "Category": "Economics and Labor", 
    "Data Dictionary": "", 
    "Data Quality": "yes", 
    "Download URL": "", 
    "Endpoint": "", 
    "Frequency of Update": "Annually", 
    "Granularity": "Country", 
    "Homepage URL": "http://www.dole.gov.ph/", 
    "Language": "English", 
    "RSS Feed": "", 
    "Release Date": "2013-12-31", 
    "Size": "0.002890625", 
    "Spatial": "yes", 
    "System of Records": "", 
    "Temporal-end": "2011-12-31", 
    "Temporal-start": "1937-01-01", 
    "Unique Identifer": "DOLE-2013-011"
  }, 
  "id": "cfd9fb99-2928-499e-86b3-2b33ddc35a51", 
  "license": null, 
  "maintainer": "Christine Ariola", 
  "maintainer_email": "christinesariola@gmail.com", 
  "name": "strike-lockout-notices-filed-actual-strikes-lockouts-workers-involved-mandays-lost-1937-2011", 
  "notes": "This dataset contains the strike lockout notices filed, actual strikes lockouts, workers involved & mandays lost - 1937 - 2011", 
  "relationships": [], 
  "resources": [
    {
      "cache_last_updated": null, 
      "cache_url": null, 
      "created": "2013-12-09T08:21:27.621353", 
      "description": "", 
      "format": "XLS", 
      "hash": "", 
      "id": "d68bc798-f0ab-4c2b-9fc8-c8d823bc792c", 
      "last_modified": null, 
      "mimetype": null, 
      "mimetype_inner": null, 
      "name": "DOLE-Strike Lockout Notices Filed, Actual Strikes Lockouts, Workers Involved and Mandays Lost-1937 to 2011.csv", 
      "package_id": "cfd9fb99-2928-499e-86b3-2b33ddc35a51", 
      "position": 0, 
      "resource_group_id": "b477cfc4-2c07-4fc5-86d6-770f3cd21acb", 
      "resource_type": "file.upload", 
      "size": null, 
      "tracking_summary": {
        "recent": 0, 
        "total": 0
      }, 
      "url": "http://data.gov.ph/catalogue/storage/f/2013-12-09T08%3A20%3A20.846Z/dole-strike-lockout-notices-filed-actual-strikes-lockouts-workers-involved-and-mandays-lost-1937-to-2011.csv", 
      "webstore_last_updated": null, 
      "webstore_url": null
    }
  ], 
  "tags": [
    "Stike lockout notices filed", 
    "actual strikes lockouts", 
    "workers involved and mandays"
  ], 
  "title": "Strike Lockout Notices Filed, Actual Strikes Lockouts, Workers Involved & Mandays Lost - 1937 - 2011", 
  "url": null, 
  "version": null
}