{
  "author": "National Anti Poverty Commission", 
  "author_email": "info@napc.gov.ph", 
  "download_url": "http://www.geoportal.gov.ph/?p=%7B%22g%22%3A%5B13610082.099764%2C1403622.1394924%2C1%2C%22Philippine%20Geoportal%20Basemap%22%5D%2C%22l%22%3A%5B%5B%22Education%20%20%26%20Literacy%3A%20%25%20of%20children%206-12%20not%20attending%20elementary%20school%22%2C%22geoportal%3Acbms_education%22%2C1%2C%22ofchildren612notattendingelementaryschool%22%2C0%2Cnull%5D%5D%7D", 
  "extras": {
    "Agency Code": "10 004 00 0000", 
    "Agency Name": "DEPARTMENT OF ENVIRONMENT AND NATURAL RESOURCES | National Mapping and Resource Information Authority", 
    "CONTACT NUMBER": "+632(02) 426-50-28", 
    "Category": "Geography, Geology and Geodata", 
    "Data Dictionary": "", 
    "Data Quality": "yes", 
    "Download URL": "http://www.geoportal.gov.ph/?p=%7B%22g%22%3A%5B13610082.099764%2C1403622.1394924%2C1%2C%22Philippine%20Geoportal%20Basemap%22%5D%2C%22l%22%3A%5B%5B%22Education%20%20%26%20Literacy%3A%20%25%20of%20children%206-12%20not%20attending%20elementary%20school%22%2C%22geoportal%3Acbms_education%22%2C1%2C%22ofchildren612notattendingelementaryschool%22%2C0%2Cnull%5D%5D%7D", 
    "Endpoint": "", 
    "Frequency of Update": "Other", 
    "Granularity": "Country", 
    "Homepage URL": "http://www.namria.gov.ph/", 
    "Language": "English", 
    "RSS Feed": "", 
    "Release Date": "2013-12-20", 
    "Size": "", 
    "Spatial": "no", 
    "System of Records": "", 
    "Temporal-end": "", 
    "Temporal-start": "", 
    "Unique Identifer": "NAMRIA-2013-096"
  }, 
  "id": "e4aa941d-89aa-454d-b844-d45154035cbf", 
  "license": null, 
  "maintainer": "Joel M. Rocamora", 
  "maintainer_email": "info@napc.gov.ph", 
  "name": "education-literacy-of-children-6-12-not-attending-elementary-school", 
  "notes": "Education & Literacy: % of children 6-12 not attending elementary school  is a fundamental dataset uploaded to the Philippine Geoportal System (www.geoportal.gov.ph).  The dataset was shared to the portal by the National Anti-Poverty Commission.", 
  "relationships": [], 
  "resources": [
    {
      "cache_last_updated": null, 
      "cache_url": null, 
      "created": "2013-12-19T02:35:30.907952", 
      "description": "", 
      "format": "PDF", 
      "hash": "", 
      "id": "e9ee88e8-69e1-411c-8d53-e5dd9dba67bc", 
      "last_modified": null, 
      "mimetype": null, 
      "mimetype_inner": null, 
      "name": "Education & Literacy: % of children 6-12 not attending elementary school", 
      "package_id": "e4aa941d-89aa-454d-b844-d45154035cbf", 
      "position": 0, 
      "resource_group_id": "3a1a2ebb-d26f-4982-90c4-96670b71cef0", 
      "resource_type": "file", 
      "size": null, 
      "tracking_summary": {
        "recent": 0, 
        "total": 0
      }, 
      "url": "http://www.geoportal.gov.ph/?p=%7B%22g%22%3A%5B13610082.099764%2C1403622.1394924%2C1%2C%22Philippine%20Geoportal%20Basemap%22%5D%2C%22l%22%3A%5B%5B%22Education%20%20%26%20Literacy%3A%20%25%20of%20children%206-12%20not%20attending%20elementary%20school%22%2C%22geoportal%3Acbms_education%22%2C1%2C%22ofchildren612notattendingelementaryschool%22%2C0%2Cnull%5D%5D%7D", 
      "webstore_last_updated": null, 
      "webstore_url": null
    }
  ], 
  "tags": [
    "Education", 
    "Literacy", 
    "namria", 
    "philippines"
  ], 
  "title": "Education & Literacy: % of children 6-12 not attending elementary school", 
  "url": null, 
  "version": null
}