{
  "author": "Philippine Statistics Authority-National Statistics Office", 
  "author_email": "www.census.gov.ph", 
  "download_url": "http://#", 
  "extras": {
    "Agency Code": "24 003 00 0000", 
    "Agency Name": "NATIONAL ECONOMIC DEVELOPMENT AUTHORITY | National Statistics Office", 
    "CONTACT NUMBER": "(+632)  716-0807", 
    "Category": "Population", 
    "Data Dictionary": "", 
    "Data Quality": "yes", 
    "Download URL": "http://catalogue.data.gov.ph/NSO/RSBSA/RSBSA-Number of Registered Farm Laborers by Sex, by Kind of Work as Farm Laborer, and by Province.xlsx", 
    "Endpoint": "", 
    "Frequency of Update": "Other", 
    "Granularity": "Province", 
    "Homepage URL": "http://www.census.gov.ph", 
    "Language": "English", 
    "RSS Feed": "", 
    "Release Date": "05/07/2014", 
    "Size": ".059", 
    "Spatial": "no", 
    "System of Records": "", 
    "Temporal-end": "12/31/2012", 
    "Temporal-start": "1/1/2012", 
    "Unique Identifer": "NSO-2014-002"
  }, 
  "id": "70a30dde-754a-4487-9585-d31782e5b2eb", 
  "license": null, 
  "maintainer": "Philippine Statistics Authority-National Statistics Office", 
  "maintainer_email": "www.census.gov.ph", 
  "name": "rsbsa-number-of-registered-farm-laborers-by-sex-by-kind-of-work-as-farm-laborer-2013", 
  "notes": "Registry System on Basic Sectors in Agriculture - Number of Registered Farm Laborers by Sex, by Kind of Work as Farm Laborer, and by Province (As of 2013)", 
  "relationships": [], 
  "resources": [
    {
      "cache_last_updated": null, 
      "cache_url": null, 
      "created": "2014-05-03T07:00:10.056129", 
      "description": "", 
      "format": "xlsx", 
      "hash": "", 
      "id": "61f479e1-eb61-4ea8-966b-2e2dc6c1764d", 
      "last_modified": null, 
      "mimetype": null, 
      "mimetype_inner": null, 
      "name": "RSBSA-Number of Registered Farm Laborers by Sex, by Kind of Work as Farm Laborer, and by Province-2013", 
      "package_id": "70a30dde-754a-4487-9585-d31782e5b2eb", 
      "position": 0, 
      "resource_group_id": "bf600829-b4d3-4eaf-a5d7-a6ca2c9c4657", 
      "resource_type": "file", 
      "size": null, 
      "tracking_summary": {
        "recent": 0, 
        "total": 0
      }, 
      "url": "http://#", 
      "webstore_last_updated": null, 
      "webstore_url": null
    }
  ], 
  "tags": [
    "RSBSA", 
    "farm laborers", 
    "kind of work", 
    "province", 
    "sex"
  ], 
  "title": "RSBSA - Number of Registered Farm Laborers by Sex, by Kind of Work as Farm Laborer, and by Province - 2013", 
  "url": null, 
  "version": null
}