{
  "author": "National Economic and Development Authority", 
  "author_email": "http://www.neda.gov.ph/", 
  "download_url": "http://data.insomnation.com/catalogue/storage/f/2014-01-07T03%3A36%3A16.387Z/21-november-2012.csv", 
  "extras": {
    "Agency Code": "24 006 00 0000", 
    "Agency Name": "NATIONAL ECONOMIC DEVELOPMENT AUTHORITY | Statistical Research and Training Center", 
    "CONTACT NUMBER": "(+632) 631-3729/631-3701", 
    "Category": "Economics and Labor", 
    "Data Dictionary": "", 
    "Data Quality": "yes", 
    "Download URL": "", 
    "Endpoint": "", 
    "Frequency of Update": "Monthly", 
    "Granularity": "Country", 
    "Homepage URL": "http://www.neda.gov.ph/", 
    "Language": "English", 
    "RSS Feed": "", 
    "Release Date": "2014-01-08", 
    "Size": "0.0078125", 
    "Spatial": "no", 
    "System of Records": "", 
    "Temporal-end": "2012-11-21", 
    "Temporal-start": "2012-01-01", 
    "Unique Identifer": "NEDA-2013-078"
  }, 
  "id": "e36b4182-5035-41de-86db-8731513d4f0a", 
  "license": null, 
  "maintainer": "Jenny Rose C. Espiritu", 
  "maintainer_email": "jcespiritu@neda.gov.ph", 
  "name": "21-november-2012-neda-updates", 
  "notes": "This dataset contains NEDA Updates for the year 2012 as of November 21 2012.", 
  "relationships": [], 
  "resources": [
    {
      "cache_last_updated": null, 
      "cache_url": null, 
      "created": "2014-01-07T03:38:18.112228", 
      "description": "", 
      "format": "XLS", 
      "hash": "", 
      "id": "9cc976f5-5aab-46f1-abdd-335fb40f691a", 
      "last_modified": null, 
      "mimetype": null, 
      "mimetype_inner": null, 
      "name": "21 November 2012.csv", 
      "package_id": "e36b4182-5035-41de-86db-8731513d4f0a", 
      "position": 0, 
      "resource_group_id": "97030387-4351-433c-aea0-59cdb8b84749", 
      "resource_type": null, 
      "size": null, 
      "tracking_summary": {
        "recent": 0, 
        "total": 0
      }, 
      "url": "http://data.gov.ph/catalogue/storage/f/2014-01-07T03%3A36%3A16.387Z/21-november-2012.csv", 
      "webstore_last_updated": null, 
      "webstore_url": null
    }
  ], 
  "tags": [
    "neda", 
    "neda updates", 
    "neda updates 2012"
  ], 
  "title": "21 November 2012 NEDA Updates", 
  "url": null, 
  "version": null
}