{
  "author": "Department of Environment and Natural Resources", 
  "author_email": "http://www.denr.gov.ph/", 
  "download_url": "http://data.insomnation.com/catalogue/storage/f/2013-12-12T05%3A19%3A15.108Z/12-231-non-timber-production-2012.csv", 
  "extras": {
    "Agency Code": "10 002 00 0000", 
    "Agency Name": "DEPARTMENT OF ENVIRONMENT AND NATURAL RESOURCES | Environmental Management Bureau", 
    "CONTACT NUMBER": "(+632)929-6626 to 29;", 
    "Category": "Environment and Climate", 
    "Data Dictionary": "", 
    "Data Quality": "yes", 
    "Download URL": "", 
    "Endpoint": "", 
    "Frequency of Update": "Annually", 
    "Granularity": "Region", 
    "Homepage URL": "http://www.denr.gov.ph/", 
    "Language": "English", 
    "RSS Feed": "", 
    "Release Date": "2013-12-13", 
    "Size": "0.002949219", 
    "Spatial": "yes", 
    "System of Records": "", 
    "Temporal-end": "2012-12-31", 
    "Temporal-start": "2012-01-01", 
    "Unique Identifer": "DENR-2013-045"
  }, 
  "id": "1827ce1a-30fb-4d0a-8ce3-4b699ac7c658", 
  "license": null, 
  "maintainer": "Roberto L. de Leon ", 
  "maintainer_email": "RLdeleon@denr.gov.ph", 
  "name": "production-of-selected-non-timber-forest-products-by-region-2012", 
  "notes": "This dataset contains the  production of selected non-timber forest products by region for the year 2012.", 
  "relationships": [], 
  "resources": [
    {
      "cache_last_updated": null, 
      "cache_url": null, 
      "created": "2013-12-12T05:20:19.539725", 
      "description": "", 
      "format": "XLS", 
      "hash": "", 
      "id": "fb509d8a-5ca2-4b62-ba58-348b52974d32", 
      "last_modified": null, 
      "mimetype": null, 
      "mimetype_inner": null, 
      "name": "12-231-Non-Timber-Production-2012.csv", 
      "package_id": "1827ce1a-30fb-4d0a-8ce3-4b699ac7c658", 
      "position": 0, 
      "resource_group_id": "98a9e775-1215-455d-9b9a-05a4c4a6ac20", 
      "resource_type": "file.upload", 
      "size": null, 
      "tracking_summary": {
        "recent": 0, 
        "total": 0
      }, 
      "url": "http://data.gov.ph/catalogue/storage/f/2013-12-12T05%3A19%3A15.108Z/12-231-non-timber-production-2012.csv", 
      "webstore_last_updated": null, 
      "webstore_url": null
    }
  ], 
  "tags": [
    "production of selected non-timber", 
    "selected non-timber forest product 2012"
  ], 
  "title": "PRODUCTION OF SELECTED NON-TIMBER FOREST PRODUCTS BY REGION 2012", 
  "url": null, 
  "version": null
}