{
  "author": "Department of Environment and Natural Resources", 
  "author_email": "http://www.denr.gov.ph/", 
  "download_url": "http://data.insomnation.com/catalogue/storage/f/2013-12-12T04%3A56%3A52.146Z/12-221-monthly-log-production-province.csv", 
  "extras": {
    "Agency Code": "10 002 00 0000", 
    "Agency Name": "DEPARTMENT OF ENVIRONMENT AND NATURAL RESOURCES | Environmental Management Bureau", 
    "CONTACT NUMBER": "(+632)929-6626 to 29;", 
    "Category": "Environment and Climate", 
    "Data Dictionary": "", 
    "Data Quality": "yes", 
    "Download URL": "", 
    "Endpoint": "", 
    "Frequency of Update": "Annually", 
    "Granularity": "Province", 
    "Homepage URL": "http://www.denr.gov.ph/", 
    "Language": "English", 
    "RSS Feed": "", 
    "Release Date": "2013-12-13", 
    "Size": "0.03232422", 
    "Spatial": "yes", 
    "System of Records": "", 
    "Temporal-end": "2012-12-31", 
    "Temporal-start": "2012-01-01", 
    "Unique Identifer": "DENR-2013-042"
  }, 
  "id": "85eb1070-acf5-445a-805a-dd5ea8b5544b", 
  "license": null, 
  "maintainer": "Roberto L. de Leon ", 
  "maintainer_email": "RLdeleon@denr.gov.ph", 
  "name": "monthly-log-production-by-province-2012", 
  "notes": "This dataset contains the monthly log production by province for the year 2012.", 
  "relationships": [], 
  "resources": [
    {
      "cache_last_updated": null, 
      "cache_url": null, 
      "created": "2013-12-12T04:57:57.312989", 
      "description": "", 
      "format": "XLS", 
      "hash": "", 
      "id": "1d7df956-049a-4ccc-95a7-cef71611764a", 
      "last_modified": null, 
      "mimetype": null, 
      "mimetype_inner": null, 
      "name": "12-221-Monthly-Log-Production-Province.csv", 
      "package_id": "85eb1070-acf5-445a-805a-dd5ea8b5544b", 
      "position": 0, 
      "resource_group_id": "986a9b38-7acc-48de-8e10-4ffec480f2de", 
      "resource_type": "file.upload", 
      "size": null, 
      "tracking_summary": {
        "recent": 0, 
        "total": 0
      }, 
      "url": "http://data.gov.ph/catalogue/storage/f/2013-12-12T04%3A56%3A52.146Z/12-221-monthly-log-production-province.csv", 
      "webstore_last_updated": null, 
      "webstore_url": null
    }
  ], 
  "tags": [
    "monthly production log 2012"
  ], 
  "title": "MONTHLY LOG PRODUCTION BY PROVINCE 2012", 
  "url": null, 
  "version": null
}