{
  "author": "Bangko Sentral ng Pilipinas", 
  "author_email": "bspmail@bsp.gov.ph", 
  "download_url": "http://www.bsp.gov.ph/banking/pbs_excel/49.xls", 
  "extras": {
    "Agency Code": "01 001 00 0000", 
    "Agency Name": "CONGRESS OF THE PHILIPPINES | Senate-Proper", 
    "CONTACT NUMBER": "(+632) 708-7559  or (+632) 708-7701 local 3045 or 3046", 
    "Category": "Economics and Labor", 
    "Data Dictionary": "http://www.bsp.gov.ph/banking/glossary.asp", 
    "Data Quality": "yes", 
    "Download URL": "http://www.bsp.gov.ph/banking/pbs_excel/49.xls", 
    "Endpoint": "", 
    "Frequency of Update": "Quarterly", 
    "Granularity": "Country", 
    "Homepage URL": "http://www.bsp.gov.ph", 
    "Language": "English", 
    "RSS Feed": "", 
    "Release Date": "12/13/2013", 
    "Size": ".207", 
    "Spatial": "no", 
    "System of Records": "Banking Statistics", 
    "Temporal-end": "12/31/2013", 
    "Temporal-start": "01/01/2013", 
    "Unique Identifer": "BSP-2013-072"
  }, 
  "id": "b37c9dad-adbf-4f4e-afbe-c0526110ff8e", 
  "license": "License Not Specified", 
  "maintainer": "Director Vicente T. De Villa III", 
  "maintainer_email": "VdeVilla@bsp.gov.ph", 
  "name": "as-of-december-2013-income-statement-and-key-ratios-of-rural-and-cooperative-banking-system", 
  "notes": "Income Statement/Consolidated Statement of Income and Expense, and Key Ratios of Rural and Cooperative Banking System", 
  "relationships": [], 
  "resources": [
    {
      "cache_last_updated": null, 
      "cache_url": null, 
      "created": "2013-12-12T08:15:34.697906", 
      "description": "", 
      "format": "XLS", 
      "hash": "", 
      "id": "a99067b5-f39c-43db-99e9-6f7c94f41535", 
      "last_modified": null, 
      "mimetype": null, 
      "mimetype_inner": null, 
      "name": "Income Statement and Key Ratios of Rural and Cooperative Banking System, As of December 2013", 
      "package_id": "b37c9dad-adbf-4f4e-afbe-c0526110ff8e", 
      "position": 0, 
      "resource_group_id": "8fd66344-add7-4900-8b29-93a1c7d55725", 
      "resource_type": "file", 
      "size": null, 
      "tracking_summary": {
        "recent": 0, 
        "total": 0
      }, 
      "url": "http://www.bsp.gov.ph/banking/pbs_excel/49.xls", 
      "webstore_last_updated": null, 
      "webstore_url": null
    }
  ], 
  "tags": [
    "CSIE", 
    "IS", 
    "consolidated statement of income and expense", 
    "income and expense", 
    "income statement", 
    "key ratios"
  ], 
  "title": "As of December 2013 Income Statement and Key Ratios of Rural and Cooperative Banking System", 
  "url": null, 
  "version": null
}