{
  "author": "Department of Social Welfare and Development", 
  "author_email": "http://www.dswd.gov.ph/contact-us/email-us/", 
  "download_url": "http://data.dswd.gov.ph/supplemental-feeding/", 
  "extras": {
    "Agency Code": "01 001 00 0000", 
    "Agency Name": "CONGRESS OF THE PHILIPPINES | Senate-Proper", 
    "CONTACT NUMBER": "+632(632) 9318101", 
    "Category": "Social", 
    "Data Dictionary": "", 
    "Data Quality": "yes", 
    "Download URL": "http://data.dswd.gov.ph/supplemental-feeding/", 
    "Endpoint": "", 
    "Frequency of Update": "Quarterly", 
    "Granularity": "Province", 
    "Homepage URL": "http://www.dswd.gov.ph/", 
    "Language": "English", 
    "RSS Feed": "", 
    "Release Date": "2014-07-03", 
    "Size": "0.117", 
    "Spatial": "no", 
    "System of Records": "", 
    "Temporal-end": "2014-05-31", 
    "Temporal-start": "2014-01-01", 
    "Unique Identifer": "DSWD-2014-005"
  }, 
  "id": "da8a8f6f-a82b-4b23-ac00-e3e1a8495c6d", 
  "license": null, 
  "maintainer": "Naomi Fernandez", 
  "maintainer_email": "nrnfernandez@dswd.gov.ph", 
  "name": "dswd-supplemental-feeding-and-social-pension", 
  "notes": "DSWD - Supplemental Feeding and Social Pension, As of May 2014", 
  "relationships": [], 
  "resources": [
    {
      "cache_last_updated": null, 
      "cache_url": null, 
      "created": "2014-07-02T09:12:52.700777", 
      "description": "Supplemental Feeding and Social Pension, As of March 2014", 
      "format": "CSV", 
      "hash": "", 
      "id": "6b080ea7-d75b-40a5-b997-d4a77ccea839", 
      "last_modified": null, 
      "mimetype": null, 
      "mimetype_inner": null, 
      "name": "Supplemental Feeding and Social Pension", 
      "package_id": "da8a8f6f-a82b-4b23-ac00-e3e1a8495c6d", 
      "position": 0, 
      "resource_group_id": "00f425b4-f2d3-4133-9bcd-83b76d229027", 
      "resource_type": "file", 
      "size": null, 
      "tracking_summary": {
        "recent": 0, 
        "total": 0
      }, 
      "url": "http://data.dswd.gov.ph/supplemental-feeding/", 
      "webstore_last_updated": null, 
      "webstore_url": null
    }, 
    {
      "cache_last_updated": null, 
      "cache_url": null, 
      "created": "2014-07-02T09:17:03.973739", 
      "description": "Supplemental Feeding and Social Pension, As of May 2014", 
      "format": "CSV", 
      "hash": "", 
      "id": "99ceaa16-dc61-4a18-81d8-428382b87dcd", 
      "last_modified": null, 
      "mimetype": null, 
      "mimetype_inner": null, 
      "name": "DSWD - Supplemental Feeding and Social Pension", 
      "package_id": "da8a8f6f-a82b-4b23-ac00-e3e1a8495c6d", 
      "position": 1, 
      "resource_group_id": "00f425b4-f2d3-4133-9bcd-83b76d229027", 
      "resource_type": "file", 
      "size": null, 
      "tracking_summary": {
        "recent": 0, 
        "total": 0
      }, 
      "url": "http://data.dswd.gov.ph/supplemental-feeding/", 
      "webstore_last_updated": null, 
      "webstore_url": null
    }
  ], 
  "tags": [
    "DSWD", 
    "Social Pension", 
    "Supplemental Feeding"
  ], 
  "title": "DSWD - Supplemental Feeding and Social Pension", 
  "url": null, 
  "version": null
}