{
  "author": "Department of Budget and Management", 
  "author_email": "publicinfo@dbm.gov.ph", 
  "download_url": "http://data.insomnation.com/catalogue/storage/f/2013-12-16T02%3A43%3A51.721Z/dbm-besf-table-b-11-2012.csv", 
  "extras": {
    "Agency Code": "01 001 00 0000", 
    "Agency Name": "CONGRESS OF THE PHILIPPINES | Senate-Proper", 
    "CONTACT NUMBER": "(+632) 735-4947", 
    "Category": "Economics and Labor", 
    "Data Dictionary": "", 
    "Data Quality": "yes", 
    "Download URL": "", 
    "Endpoint": "", 
    "Frequency of Update": "Annually", 
    "Granularity": "Country", 
    "Homepage URL": "http://www.dbm.gov.ph/", 
    "Language": "English", 
    "RSS Feed": "", 
    "Release Date": "2013-12-17", 
    "Size": "0.04189453", 
    "Spatial": "no", 
    "System of Records": "", 
    "Temporal-end": "2012-12-31", 
    "Temporal-start": "2012-01-01", 
    "Unique Identifer": "DBM-2013-071"
  }, 
  "id": "45669471-6552-469d-888f-9be328c81a97", 
  "license": null, 
  "maintainer": "Gianne Karla Gaoiran", 
  "maintainer_email": "gkgaoiran@dbm.gov.ph", 
  "name": "budget-of-expenditures-and-sources-of-financing-table-b-11-2012", 
  "notes": "Budget of Expenditures and Sources of Financing Expenditure Program, By Agency, By General Expense Class 2012", 
  "relationships": [], 
  "resources": [
    {
      "cache_last_updated": null, 
      "cache_url": null, 
      "created": "2013-12-16T02:45:24.552285", 
      "description": "Budget of Expenditures and Sources of Financing (BESF) \u2013 Reflects the annual program of estimated expenditures of the National Government accompanied by an estimate of expected sources of financing, which is constitutionally mandated to be submitted by the Executive branch to the Legislature to support the proposed National Budget.\r\n\r\nExpense or Allotment Classes:\r\n\r\nPersonnel (or Personal) Services (PS) \u2013 Provisions for salaries, wages, and other compensation (e.g. merit, salary increase, cost-of-living-allowances, honoraria, and commutable allowances) for permanent, temporary, contractual, and casual employees of the government.\r\n\r\nMaintenance and Other Operating Expenses (MOOE) \u2013 Refer to expenditures that support the operations of government agencies, including those for supplies and materials; transportation and travel; utilities (water, power, etc.) and maintenance activities.\r\n\r\nCapital Outlay (CO) \u2013 Refer to appropriations for purchasing goods and services that add to the Government\u2019s assets \u2013 including investments in the capital stock of GOCCs and their subsidiaries \u2013 produce long-term benefits (e.g. the acquisition of buildings, land, motor vehicles, equipment).\r\n\r\nSectors:\r\n\r\nEconomic Services \u2013 are government expenditures that are intended to support economic development, including agriculture, transport infrastructure, tourism, among others.\r\n\r\nSocial Services \u2013 represent government spending to improve the living conditions of citizens, particularly the poor, through education, health, social security and others.\r\n\r\nDefense \u2013 refers to expenditures that support the general effort to ensure national security, stability and peace.\r\n\r\nGeneral Public Services \u2013 are expenditures for general administration (such as fiscal management, foreign affairs, lawmaking, etc.) and public order and safety.\r\n\r\nDebt Burden \u2013 includes interest payments on national government's domestic and foreign debt, as well as net lending to government corporations for their debt that are guaranteed by the national government.", 
      "format": "CSV", 
      "hash": "", 
      "id": "da34e6e9-0600-4cc6-bf4e-f2290f839d3b", 
      "last_modified": null, 
      "mimetype": null, 
      "mimetype_inner": null, 
      "name": "Budget of Expenditures and Sources of Financing Table B.11-2012.csv", 
      "package_id": "45669471-6552-469d-888f-9be328c81a97", 
      "position": 0, 
      "resource_group_id": "99345bfd-6f74-44cb-a9de-63445ceab68e", 
      "resource_type": "file.upload", 
      "size": null, 
      "tracking_summary": {
        "recent": 0, 
        "total": 0
      }, 
      "url": "http://data.gov.ph/catalogue/storage/f/2013-12-16T02%3A43%3A51.721Z/dbm-besf-table-b-11-2012.csv", 
      "webstore_last_updated": null, 
      "webstore_url": null
    }
  ], 
  "tags": [
    "BESF", 
    "Budget of Expenditures and Sources of Financing"
  ], 
  "title": "Budget of Expenditures and Sources of Financing Table B.11 2012", 
  "url": null, 
  "version": null
}