{
  "author": "Department of Environment and Natural Resources", 
  "author_email": "http://www.denr.gov.ph/", 
  "download_url": "http://data.insomnation.com/catalogue/storage/f/2013-12-11T07%3A14%3A53.833Z/nontimber-prod-2013.csv", 
  "extras": {
    "Agency Code": "10 002 00 0000", 
    "Agency Name": "DEPARTMENT OF ENVIRONMENT AND NATURAL RESOURCES | Environmental Management Bureau", 
    "CONTACT NUMBER": "+632929-6626 TO 29;", 
    "Category": "Environment and Traffic", 
    "Data Dictionary": "", 
    "Data Quality": "yes", 
    "Download URL": "", 
    "Endpoint": "", 
    "Frequency of Update": "Annually", 
    "Granularity": "Country", 
    "Homepage URL": "http://www.denr.gov.ph/", 
    "Language": "English", 
    "RSS Feed": "", 
    "Release Date": "2013-12-12", 
    "Size": "0.002373047", 
    "Spatial": "yes", 
    "System of Records": "", 
    "Temporal-end": "2013-06-30", 
    "Temporal-start": "2013-01-01", 
    "Unique Identifer": "DENR-2013-003"
  }, 
  "id": "83e9c8cb-008a-42f9-879e-b84bf373810e", 
  "license": null, 
  "maintainer": "Roberto L. de Leon", 
  "maintainer_email": "RLdeleon@denr.gov.ph", 
  "name": "non-timber-production-2013", 
  "notes": "This dataset contains the non-timber production for January to June 2013.", 
  "relationships": [], 
  "resources": [
    {
      "cache_last_updated": null, 
      "cache_url": null, 
      "created": "2013-12-11T07:16:04.949641", 
      "description": "", 
      "format": "XLS", 
      "hash": "", 
      "id": "d0d0c762-54d0-4a80-b12b-6b2fe17fcfe0", 
      "last_modified": null, 
      "mimetype": null, 
      "mimetype_inner": null, 
      "name": "Nontimber_Prod_2013.csv", 
      "package_id": "83e9c8cb-008a-42f9-879e-b84bf373810e", 
      "position": 0, 
      "resource_group_id": "9d29a24a-4556-4452-bd6b-c605a8714a3b", 
      "resource_type": "file.upload", 
      "size": null, 
      "tracking_summary": {
        "recent": 0, 
        "total": 0
      }, 
      "url": "http://data.gov.ph/catalogue/storage/f/2013-12-11T07%3A14%3A53.833Z/nontimber-prod-2013.csv", 
      "webstore_last_updated": null, 
      "webstore_url": null
    }
  ], 
  "tags": [
    "Non-timber production"
  ], 
  "title": "Non - timber Production 2013", 
  "url": null, 
  "version": null
}