{
  "author": "Department of Education", 
  "author_email": "http://www.deped.gov.ph/", 
  "download_url": "http://data.insomnation.com/catalogue/storage/f/2013-12-09T09%3A36%3A38.386Z/deped-teacher-salaries-1995-to-2012.csv", 
  "extras": {
    "Agency Code": "01 001 00 0000", 
    "Agency Name": "CONGRESS OF THE PHILIPPINES | Senate-Proper", 
    "CONTACT NUMBER": "+632632-1361 to 71;", 
    "Category": "Education and Science", 
    "Data Dictionary": "", 
    "Data Quality": "yes", 
    "Download URL": "", 
    "Endpoint": "", 
    "Frequency of Update": "Annually", 
    "Granularity": "Country", 
    "Homepage URL": "http://www.deped.gov.ph/", 
    "Language": "English", 
    "RSS Feed": "", 
    "Release Date": "2013-12-10", 
    "Size": "0.00073909765625", 
    "Spatial": "yes", 
    "System of Records": "", 
    "Temporal-end": "2012-12-31", 
    "Temporal-start": "1995-01-01", 
    "Unique Identifer": "DEPED-2013-007"
  }, 
  "id": "eab898f6-5d8c-4022-a135-fb47e838b803", 
  "license": null, 
  "maintainer": "Maria Clarrise  Ligunas", 
  "maintainer_email": "mariaclarisse.ligunas@deped.gov.ph", 
  "name": "teacher-salaries-1995-2012", 
  "notes": "This dataset contains the teacher salaries for the year 1995 to 2012.", 
  "relationships": [], 
  "resources": [
    {
      "cache_last_updated": null, 
      "cache_url": null, 
      "created": "2013-12-09T09:37:52.722773", 
      "description": "", 
      "format": "XLS", 
      "hash": "", 
      "id": "34dcace5-7a55-4289-af71-c843fa01fa61", 
      "last_modified": null, 
      "mimetype": null, 
      "mimetype_inner": null, 
      "name": "DEPED-Teacher Salaries-1995 to 2012.csv", 
      "package_id": "eab898f6-5d8c-4022-a135-fb47e838b803", 
      "position": 0, 
      "resource_group_id": "c2a0e194-c0da-4b33-8623-9ce28a48744a", 
      "resource_type": "file.upload", 
      "size": null, 
      "tracking_summary": {
        "recent": 0, 
        "total": 0
      }, 
      "url": "http://data.gov.ph/catalogue/storage/f/2013-12-09T09%3A36%3A38.386Z/deped-teacher-salaries-1995-to-2012.csv", 
      "webstore_last_updated": null, 
      "webstore_url": null
    }, 
    {
      "cache_last_updated": null, 
      "cache_url": null, 
      "created": "2013-12-09T09:39:23.715685", 
      "description": "", 
      "format": "XLS", 
      "hash": "", 
      "id": "31ded53e-7b0f-4f54-aa6c-115a7a9d9857", 
      "last_modified": null, 
      "mimetype": null, 
      "mimetype_inner": null, 
      "name": "DEPED-Teacher Salaries-1995 to 2012.csv", 
      "package_id": "eab898f6-5d8c-4022-a135-fb47e838b803", 
      "position": 1, 
      "resource_group_id": "c2a0e194-c0da-4b33-8623-9ce28a48744a", 
      "resource_type": "file.upload", 
      "size": null, 
      "tracking_summary": {
        "recent": 0, 
        "total": 0
      }, 
      "url": "http://data.gov.ph/catalogue/storage/f/2013-12-09T09%3A38%3A16.620Z/deped-teacher-salaries-1995-to-2012.csv", 
      "webstore_last_updated": null, 
      "webstore_url": null
    }
  ], 
  "tags": [
    "teacher salaries"
  ], 
  "title": "Teacher Salaries -1995 - 2012", 
  "url": null, 
  "version": null
}