{
  "author": "Philippine Statistics Authority-National Statistical Coordination Board", 
  "author_email": "www.nscb.gov.ph", 
  "download_url": "http://#", 
  "extras": {
    "Agency Code": "24 002 00 0000", 
    "Agency Name": "NATIONAL ECONOMIC DEVELOPMENT AUTHORITY | National Statistical Coordination Board", 
    "CONTACT NUMBER": "(+632) 895-2767", 
    "Category": "Population", 
    "Data Dictionary": "", 
    "Data Quality": "yes", 
    "Download URL": "http://catalogue.data.gov.ph/NSCB/NSCB-Poverty Threshold and Incidence-1991 to 2012.xlsx", 
    "Endpoint": "", 
    "Frequency of Update": "Annually", 
    "Granularity": "Region", 
    "Homepage URL": ".061", 
    "Language": "English", 
    "RSS Feed": "", 
    "Release Date": "05/07/2014", 
    "Size": "", 
    "Spatial": "no", 
    "System of Records": "", 
    "Temporal-end": "12/31/2012", 
    "Temporal-start": "1/1/1991", 
    "Unique Identifer": "NSCB-2014-016"
  }, 
  "id": "80568bba-df49-4fa4-b2d8-c5b31d783f45", 
  "license": "License Not Specified", 
  "maintainer": "Philippine Statistics Authority-National Statistical Coordination Board", 
  "maintainer_email": "www.nscb.gov.ph", 
  "name": "nscb-poverty-threshold-and-incidence-1991-to-2012", 
  "notes": "Poverty Threshold and Incidence from 1991 to 2012", 
  "relationships": [], 
  "resources": [
    {
      "cache_last_updated": null, 
      "cache_url": null, 
      "created": "2014-05-04T12:51:40.234015", 
      "description": "", 
      "format": "xlsx", 
      "hash": "", 
      "id": "23a2b947-70ae-4e98-896d-0def3dc39bd9", 
      "last_modified": null, 
      "mimetype": null, 
      "mimetype_inner": null, 
      "name": "NSCB-Poverty Threshold and Incidence-1991 to 2012", 
      "package_id": "80568bba-df49-4fa4-b2d8-c5b31d783f45", 
      "position": 0, 
      "resource_group_id": "0378cf45-60c6-43c4-ae9a-7619c28d095f", 
      "resource_type": "file", 
      "size": null, 
      "tracking_summary": {
        "recent": 0, 
        "total": 0
      }, 
      "url": "http://#", 
      "webstore_last_updated": null, 
      "webstore_url": null
    }
  ], 
  "tags": [
    "incidence", 
    "poverty", 
    "poverty incidence", 
    "poverty threshold", 
    "threshold"
  ], 
  "title": "NSCB - Poverty Threshold and Incidence - 1991 to 2012", 
  "url": null, 
  "version": null
}