{
  "author": "Commission on Higher Education", 
  "author_email": "http://www.ched.gov.ph/", 
  "download_url": "http://data.insomnation.com/catalogue/storage/f/2013-12-09T07%3A58%3A09.854Z/ched-sucs-ratio-of-faculty-by-program-level-2012-to-2013.csv", 
  "extras": {
    "Agency Code": "01 001 00 0000", 
    "Agency Name": "CONGRESS OF THE PHILIPPINES | Senate-Proper", 
    "CONTACT NUMBER": "(+632) 441-1149 loc 128", 
    "Category": "Economics and Labor", 
    "Data Dictionary": "", 
    "Data Quality": "yes", 
    "Download URL": "", 
    "Endpoint": "", 
    "Frequency of Update": "Annually", 
    "Granularity": "Region", 
    "Homepage URL": "http://www.ched.gov.ph/chedwww/index.php/eng/Information/Statistics", 
    "Language": "English", 
    "RSS Feed": "", 
    "Release Date": "2013-12-10", 
    "Size": "0.0625", 
    "Spatial": "yes", 
    "System of Records": "", 
    "Temporal-end": "2013-01-01", 
    "Temporal-start": "2012-01-01", 
    "Unique Identifer": "CHED-2013-016"
  }, 
  "id": "a94bf427-95ce-4272-8dfd-d337c6075451", 
  "license": null, 
  "maintainer": "Office of Planning, Research and Knowledge Management - Knowledge Management Division ", 
  "maintainer_email": "gatienza@ched.gov.ph", 
  "name": "sucs-faculty-student-ratio-ay-2012-13", 
  "notes": "This dataset contains the State Universities and Colleges (SUCs) faculty-student ratio for AY 2012/13.", 
  "relationships": [], 
  "resources": [
    {
      "cache_last_updated": null, 
      "cache_url": null, 
      "created": "2013-12-09T07:59:13.276257", 
      "description": "", 
      "format": "XLS", 
      "hash": "", 
      "id": "1a82659e-d9f5-4dc9-ab40-8fda516e5d2e", 
      "last_modified": null, 
      "mimetype": null, 
      "mimetype_inner": null, 
      "name": "CHED-SUCs Ratio of Faculty by Program Level-2012 to 2013.csv", 
      "package_id": "a94bf427-95ce-4272-8dfd-d337c6075451", 
      "position": 0, 
      "resource_group_id": "60178b52-049d-4440-8128-3a3b7be4a3a8", 
      "resource_type": "file.upload", 
      "size": null, 
      "tracking_summary": {
        "recent": 0, 
        "total": 0
      }, 
      "url": "http://data.gov.ph/catalogue/storage/f/2013-12-09T07%3A58%3A09.854Z/ched-sucs-ratio-of-faculty-by-program-level-2012-to-2013.csv", 
      "webstore_last_updated": null, 
      "webstore_url": null
    }, 
    {
      "cache_last_updated": null, 
      "cache_url": null, 
      "created": "2013-12-09T08:02:30.757429", 
      "description": "", 
      "format": "XLS", 
      "hash": "", 
      "id": "d1a90c01-7a3a-4845-9756-8242069bc90d", 
      "last_modified": null, 
      "mimetype": null, 
      "mimetype_inner": null, 
      "name": "CHED-SUCs Ratio of Faculty by Program Level-2012 to 2013.csv", 
      "package_id": "a94bf427-95ce-4272-8dfd-d337c6075451", 
      "position": 1, 
      "resource_group_id": "60178b52-049d-4440-8128-3a3b7be4a3a8", 
      "resource_type": null, 
      "size": null, 
      "tracking_summary": {
        "recent": 0, 
        "total": 0
      }, 
      "url": "http://data.gov.ph/catalogue/storage/f/2013-12-09T07%3A58%3A09.854Z/ched-sucs-ratio-of-faculty-by-program-level-2012-to-2013.csv", 
      "webstore_last_updated": null, 
      "webstore_url": null
    }
  ], 
  "tags": [
    "Enrollment", 
    "Faculty", 
    "Faculty-Student Ratio", 
    "SUCs"
  ], 
  "title": "SUCs Faculty-Student Ratio AY 2012/13", 
  "url": null, 
  "version": null
}