{
  "author": "Department of Environment and Natural Resources", 
  "author_email": "http://www.denr.gov.ph/", 
  "download_url": "http://data.insomnation.com/catalogue/storage/f/2013-12-12T03%3A32%3A35.480Z/prices-wpb-2009.csv", 
  "extras": {
    "Agency Code": "10 002 00 0000", 
    "Agency Name": "DEPARTMENT OF ENVIRONMENT AND NATURAL RESOURCES | Environmental Management Bureau", 
    "CONTACT NUMBER": "(+632)929-6626 to 29;", 
    "Category": "Environment and Climate", 
    "Data Dictionary": "", 
    "Data Quality": "yes", 
    "Download URL": "", 
    "Endpoint": "", 
    "Frequency of Update": "Annually", 
    "Granularity": "Country", 
    "Homepage URL": "http://www.denr.gov.ph/d", 
    "Language": "English", 
    "RSS Feed": "", 
    "Release Date": "2013-12-13", 
    "Size": "0.002099609", 
    "Spatial": "yes", 
    "System of Records": "", 
    "Temporal-end": "2009-12-31", 
    "Temporal-start": "2009-01-01", 
    "Unique Identifer": "DENR-2013-033"
  }, 
  "id": "51f9a60b-e56a-4020-bf57-fcd112094236", 
  "license": null, 
  "maintainer": "Roberto L. de Leon ", 
  "maintainer_email": "RLdeleon@denr.gov.ph", 
  "name": "average-domestic-price-of-wood-panel-board-2009", 
  "notes": "This dataset contains the average domestic price of wood panel board for the year 2009.", 
  "relationships": [], 
  "resources": [
    {
      "cache_last_updated": null, 
      "cache_url": null, 
      "created": "2013-12-12T03:33:37.516411", 
      "description": "", 
      "format": "XLS", 
      "hash": "", 
      "id": "85e8004b-ee6a-4e28-8641-59209adf5465", 
      "last_modified": null, 
      "mimetype": null, 
      "mimetype_inner": null, 
      "name": "prices-wpb 2009.csv", 
      "package_id": "51f9a60b-e56a-4020-bf57-fcd112094236", 
      "position": 0, 
      "resource_group_id": "c3e9589d-ea30-484d-913b-f73c3a2409b5", 
      "resource_type": "file.upload", 
      "size": null, 
      "tracking_summary": {
        "recent": 0, 
        "total": 0
      }, 
      "url": "http://data.gov.ph/catalogue/storage/f/2013-12-12T03%3A32%3A35.480Z/prices-wpb-2009.csv", 
      "webstore_last_updated": null, 
      "webstore_url": null
    }
  ], 
  "tags": [
    "wood panel board 2009"
  ], 
  "title": "AVERAGE DOMESTIC PRICE OF WOOD PANEL BOARD 2009", 
  "url": null, 
  "version": null
}