{
  "author": "National Mapping and Resource Information Authority", 
  "author_email": "oss@namria.gov.ph", 
  "download_url": "http://www.geoportal.gov.ph/?p=%7B%22g%22%3A%5B13480899.9099%2C1642977.40225%2C6%2C%22Philippine%20Geoportal%20Basemap%22%5D%2C%22l%22%3A%5B%5B%22Ondoy%20flood%20height%22%2C%22geoportal%3Aondoy_floodheight%22%2C1%2C%22FloodHeight%22%2C0%2Cnull%5D%5D%7D", 
  "extras": {
    "Agency Code": "10 004 00 0000", 
    "Agency Name": "DEPARTMENT OF ENVIRONMENT AND NATURAL RESOURCES | National Mapping and Resource Information Authority", 
    "CONTACT NUMBER": "+632(02) 810-48-31 TO 44 Local 420", 
    "Category": "Geography, Geology and Geodata", 
    "Data Dictionary": "", 
    "Data Quality": "yes", 
    "Download URL": "http://www.geoportal.gov.ph/?p=%7B%22g%22%3A%5B13480899.9099%2C1642977.40225%2C6%2C%22Philippine%20Geoportal%20Basemap%22%5D%2C%22l%22%3A%5B%5B%22Ondoy%20flood%20height%22%2C%22geoportal%3Aondoy_floodheight%22%2C1%2C%22FloodHeight%22%2C0%2Cnull%5D%5D%7D", 
    "Endpoint": "", 
    "Frequency of Update": "Other", 
    "Granularity": "Country", 
    "Homepage URL": "http://www.namria.gov.ph/", 
    "Language": "English", 
    "RSS Feed": "", 
    "Release Date": "2013-12-20", 
    "Size": "", 
    "Spatial": "no", 
    "System of Records": "", 
    "Temporal-end": "", 
    "Temporal-start": "", 
    "Unique Identifer": "NAMRIA-2013-094"
  }, 
  "id": "ea32df0a-e2ae-4513-b7ff-4e57fc4a5b26", 
  "license": null, 
  "maintainer": "Dr. Peter N. Tiangco", 
  "maintainer_email": "ptiangco@namria.gov.ph", 
  "name": "ondoy-flood-height", 
  "notes": "Ondoy flood height is a fundamental dataset of the National Mapping and Resource Information Authority (NAMRIA) uploaded in the Philippine Geoportal System (www.geoportal.gov.ph)  ", 
  "relationships": [], 
  "resources": [
    {
      "cache_last_updated": null, 
      "cache_url": null, 
      "created": "2013-12-19T02:21:15.369047", 
      "description": "", 
      "format": "PDF", 
      "hash": "", 
      "id": "a0ab428a-f489-4b2b-b8a5-875ec95efc3a", 
      "last_modified": null, 
      "mimetype": null, 
      "mimetype_inner": null, 
      "name": "Ondoy flood height", 
      "package_id": "ea32df0a-e2ae-4513-b7ff-4e57fc4a5b26", 
      "position": 0, 
      "resource_group_id": "75cf93b6-57d6-4a0b-831f-e46d478853f9", 
      "resource_type": "file", 
      "size": null, 
      "tracking_summary": {
        "recent": 0, 
        "total": 0
      }, 
      "url": "http://www.geoportal.gov.ph/?p=%7B%22g%22%3A%5B13480899.9099%2C1642977.40225%2C6%2C%22Philippine%20Geoportal%20Basemap%22%5D%2C%22l%22%3A%5B%5B%22Ondoy%20flood%20height%22%2C%22geoportal%3Aondoy_floodheight%22%2C1%2C%22FloodHeight%22%2C0%2Cnull%5D%5D%7D", 
      "webstore_last_updated": null, 
      "webstore_url": null
    }
  ], 
  "tags": [
    "Ondoy flood height", 
    "namria", 
    "philippines"
  ], 
  "title": "Ondoy flood height", 
  "url": null, 
  "version": null
}