{
  "author": "Department of Agriculture", 
  "author_email": "http://www.da.gov.ph/", 
  "download_url": "http://www.geoportal.gov.ph/?p=%7B%22g%22%3A%5B13610082.099764%2C1403622.1394924%2C1%2C%22Philippine%20Geoportal%20Basemap%22%5D%2C%22l%22%3A%5B%5B%22Male%20fishermen%20engaged%20in%20oyster%20aquaculture%22%2C%22geoportal%3Afishermen_oyster_aquaculture%22%2C1%2C%22MaleFishermenengagedOysterAquaculture%22%2C0%2Cnull%5D%5D%7D", 
  "extras": {
    "Agency Code": "10 004 00 0000", 
    "Agency Name": "DEPARTMENT OF ENVIRONMENT AND NATURAL RESOURCES | National Mapping and Resource Information Authority", 
    "CONTACT NUMBER": "+632(02) 929-82-47", 
    "Category": "Economics and Labor", 
    "Data Dictionary": "", 
    "Data Quality": "yes", 
    "Download URL": "http://www.geoportal.gov.ph/?p=%7B%22g%22%3A%5B13610082.099764%2C1403622.1394924%2C1%2C%22Philippine%20Geoportal%20Basemap%22%5D%2C%22l%22%3A%5B%5B%22Male%20fishermen%20engaged%20in%20oyster%20aquaculture%22%2C%22geoportal%3Afishermen_oyster_aquaculture%22%2C1%2C%22MaleFishermenengagedOysterAquaculture%22%2C0%2Cnull%5D%5D%7D", 
    "Endpoint": "", 
    "Frequency of Update": "Annually", 
    "Granularity": "Country", 
    "Homepage URL": "http://www.namria.gov.ph/", 
    "Language": "English", 
    "RSS Feed": "", 
    "Release Date": "2013-12-14", 
    "Size": "", 
    "Spatial": "yes", 
    "System of Records": "", 
    "Temporal-end": "", 
    "Temporal-start": "", 
    "Unique Identifer": "NAMRIA-2013-018"
  }, 
  "id": "28de63e3-cea2-496a-9a25-6408907c1926", 
  "license": null, 
  "maintainer": "Proceso J. Alcala", 
  "maintainer_email": "web@da.gov.ph", 
  "name": "male-fisherman-engaged-in-oyster-aquaculture", 
  "notes": "The dataset provide a male gender-based statistics on fishermen that are involve in the farming of oyster. The extent or area of coverage is nationwide. The dataset was shared to the portal by the Department of Agriculture.", 
  "relationships": [], 
  "resources": [
    {
      "cache_last_updated": null, 
      "cache_url": null, 
      "created": "2013-12-13T06:30:59.365906", 
      "description": "", 
      "format": "PDF", 
      "hash": "", 
      "id": "d889aa1f-2dcd-47b0-93db-7829b929b6ee", 
      "last_modified": null, 
      "mimetype": null, 
      "mimetype_inner": null, 
      "name": "Male fisherman engaged in oyster aquaculture", 
      "package_id": "28de63e3-cea2-496a-9a25-6408907c1926", 
      "position": 0, 
      "resource_group_id": "6475fc9b-42e9-40a0-9a9f-9f5930b9e0f5", 
      "resource_type": "file", 
      "size": null, 
      "tracking_summary": {
        "recent": 0, 
        "total": 0
      }, 
      "url": "http://www.geoportal.gov.ph/?p=%7B%22g%22%3A%5B13610082.099764%2C1403622.1394924%2C1%2C%22Philippine%20Geoportal%20Basemap%22%5D%2C%22l%22%3A%5B%5B%22Male%20fishermen%20engaged%20in%20oyster%20aquaculture%22%2C%22geoportal%3Afishermen_oyster_aquaculture%22%2C1%2C%22MaleFishermenengagedOysterAquaculture%22%2C0%2Cnull%5D%5D%7D", 
      "webstore_last_updated": null, 
      "webstore_url": null
    }
  ], 
  "tags": [
    "aquaculture", 
    "male fisherman", 
    "oyster"
  ], 
  "title": "Male fisherman engaged in oyster aquaculture", 
  "url": null, 
  "version": null
}