{
  "author": "Philippine Statistics Authority-National Statistics Office", 
  "author_email": "www.census.gov.ph", 
  "download_url": "http://#", 
  "extras": {
    "Agency Code": "24 003 00 0000", 
    "Agency Name": "NATIONAL ECONOMIC DEVELOPMENT AUTHORITY | National Statistics Office", 
    "CONTACT NUMBER": "(+632)  716-0807", 
    "Category": "Population", 
    "Data Dictionary": "", 
    "Data Quality": "yes", 
    "Download URL": "http://catalogue.data.gov.ph/NSO/RSBSA/RSBSA-Number of Registered Fishermen by Sex, by Type of Species, and by Province and City, Municipality.xlsx", 
    "Endpoint": "", 
    "Frequency of Update": "Other", 
    "Granularity": "Province", 
    "Homepage URL": "http://www.census.gov.ph", 
    "Language": "English", 
    "RSS Feed": "", 
    "Release Date": "05/07/2014", 
    "Size": ".046", 
    "Spatial": "no", 
    "System of Records": "", 
    "Temporal-end": "12/31/2013", 
    "Temporal-start": "1/1/2012", 
    "Unique Identifer": "NSO-2014-023"
  }, 
  "id": "510cb252-b524-400c-a6a8-da71dec7db6b", 
  "license": null, 
  "maintainer": "Philippine Statistics Authority-National Statistics Office", 
  "maintainer_email": "www.census.gov.ph", 
  "name": "rsbsa-number-of-registered-fishermen-by-sex-by-type-of-species-2013", 
  "notes": "Number of Registered Fishermen by Sex, by Type of Species, and by Province and City, Municipality (As of 2013)", 
  "relationships": [], 
  "resources": [
    {
      "cache_last_updated": null, 
      "cache_url": null, 
      "created": "2014-05-03T10:40:18.025491", 
      "description": "", 
      "format": "xlsx", 
      "hash": "", 
      "id": "1fe9ea59-4b6c-4bec-993d-d478716b4136", 
      "last_modified": null, 
      "mimetype": null, 
      "mimetype_inner": null, 
      "name": "RSBSA-Number of Registered Fishermen by Sex, by Type of Species, and by Province and City, Municipality-2013", 
      "package_id": "510cb252-b524-400c-a6a8-da71dec7db6b", 
      "position": 0, 
      "resource_group_id": "ef4ed006-cb8f-49c7-a16f-4dab11820135", 
      "resource_type": "file", 
      "size": null, 
      "tracking_summary": {
        "recent": 0, 
        "total": 0
      }, 
      "url": "http://#", 
      "webstore_last_updated": null, 
      "webstore_url": null
    }
  ], 
  "tags": [
    "fishermen", 
    "provin", 
    "sex", 
    "species"
  ], 
  "title": "RSBSA - Number of Registered Fishermen by Sex, by Type of Species, and by Province and City, Municipality - 2013", 
  "url": null, 
  "version": null
}