{
  "author": "National Mapping and Resource Information Authority", 
  "author_email": "oss@namria.gov.ph", 
  "download_url": "http://geoportal.gov.ph/?p=%7B%22g%22%3A%5B13617603.403841%2C1289784.932651%2C6%2C%22Philippine%20Geoportal%20Basemap%22%5D%2C%22l%22%3A%5B%5D%7D", 
  "extras": {
    "Agency Code": "10 004 00 0000", 
    "Agency Name": "DEPARTMENT OF ENVIRONMENT AND NATURAL RESOURCES | National Mapping and Resource Information Authority", 
    "CONTACT NUMBER": "+632(02) 810-48-31 TO 44 Local 420", 
    "Category": "Geography, Geology and Geodata", 
    "Data Dictionary": "", 
    "Data Quality": "yes", 
    "Download URL": "http://geoportal.gov.ph/?p=%7B%22g%22%3A%5B13617603.403841%2C1289784.932651%2C6%2C%22Philippine%20Geoportal%20Basemap%22%5D%2C%22l%22%3A%5B%5D%7D", 
    "Endpoint": "", 
    "Frequency of Update": "Other", 
    "Granularity": "Country", 
    "Homepage URL": "http://www.namria.gov.ph/", 
    "Language": "English", 
    "RSS Feed": "", 
    "Release Date": "2013-12-18", 
    "Size": "", 
    "Spatial": "no", 
    "System of Records": "", 
    "Temporal-end": "", 
    "Temporal-start": "", 
    "Unique Identifer": "NAMRIA-2013-073"
  }, 
  "id": "76a97a64-e2c8-4ac0-b1de-1802a46e13da", 
  "license": null, 
  "maintainer": "Dr. Peter N. Tiangco", 
  "maintainer_email": "ptiangco@namria.gov.ph", 
  "name": "topographic-map-as-background-basemap-1-50-000-for-regions-1-2-3-6", 
  "notes": "Topographic map (as background/basemap) 1:50,000 for Regions 1, 2, 3 & 6  is a fundamental dataset of the National Mapping and Resource Information Authority (NAMRIA) uploaded in the Philippine Geoportal System (www.geoportal.gov.ph)  ", 
  "relationships": [], 
  "resources": [
    {
      "cache_last_updated": null, 
      "cache_url": null, 
      "created": "2013-12-17T01:35:47.997922", 
      "description": "", 
      "format": "PDF", 
      "hash": "", 
      "id": "05c30513-cc70-4c39-87d5-bc0b8efddd13", 
      "last_modified": null, 
      "mimetype": null, 
      "mimetype_inner": null, 
      "name": "Topographic map (as background/basemap) 1:50,000 for Regions 1, 2, 3 & 6", 
      "package_id": "76a97a64-e2c8-4ac0-b1de-1802a46e13da", 
      "position": 0, 
      "resource_group_id": "5295277d-b0c7-4024-adef-f12636a69073", 
      "resource_type": "file", 
      "size": null, 
      "tracking_summary": {
        "recent": 0, 
        "total": 0
      }, 
      "url": "http://geoportal.gov.ph/?p=%7B%22g%22%3A%5B13617603.403841%2C1289784.932651%2C6%2C%22Philippine%20Geoportal%20Basemap%22%5D%2C%22l%22%3A%5B%5D%7D", 
      "webstore_last_updated": null, 
      "webstore_url": null
    }
  ], 
  "tags": [
    "region", 
    "region 1", 
    "region 2", 
    "region 3", 
    "region 6", 
    "topographic map philippines"
  ], 
  "title": " Topographic map (as background/basemap) 1:50,000 for Regions 1, 2, 3 & 6", 
  "url": null, 
  "version": null
}