{
  "author": "Philippine Statistics Authority-National Statistics Office", 
  "author_email": "www.census.gov.ph", 
  "download_url": "http://#", 
  "extras": {
    "Agency Code": "24 003 00 0000", 
    "Agency Name": "NATIONAL ECONOMIC DEVELOPMENT AUTHORITY | National Statistics Office", 
    "CONTACT NUMBER": "(+632)  716-0807", 
    "Category": "Population", 
    "Data Dictionary": "", 
    "Data Quality": "yes", 
    "Download URL": "http://catalogue.data.gov.ph/NSO/RSBSA/RSBSA-Number of Registered Farmers, Farm Laborers and Fishermen by Sex, by Marital Status, and by Province.xlsx", 
    "Endpoint": "", 
    "Frequency of Update": "Other", 
    "Granularity": "Province", 
    "Homepage URL": "http://www.census.gov.ph", 
    "Language": "English", 
    "RSS Feed": "", 
    "Release Date": "05/07/2014", 
    "Size": ".060", 
    "Spatial": "no", 
    "System of Records": "", 
    "Temporal-end": "12/31/2013", 
    "Temporal-start": "1/1/2012", 
    "Unique Identifer": "NSO-2014-005"
  }, 
  "id": "a9fb441a-613d-4b50-946b-8fe9daf856b8", 
  "license": null, 
  "maintainer": "Philippine Statistics Authority-National Statistics Office", 
  "maintainer_email": "www.census.gov.ph", 
  "name": "rsbsa-number-of-registered-farmers-farm-laborers-and-fishermen-by-sex-by-marital-status-2013", 
  "notes": "Registry System on Basic Sectors in Agriculture - Number of Registered Farmers, Farm Laborers and Fishermen by Sex, by Marital Status, and by Province (As of 2013)", 
  "relationships": [], 
  "resources": [
    {
      "cache_last_updated": null, 
      "cache_url": null, 
      "created": "2014-05-03T06:53:15.999993", 
      "description": "", 
      "format": "xlsx", 
      "hash": "", 
      "id": "824c75d4-c75b-4baa-a014-132298d24773", 
      "last_modified": null, 
      "mimetype": null, 
      "mimetype_inner": null, 
      "name": "RSBSA-Number of Registered Farmers, Farm Laborers and Fishermen by Sex, by Marital Status, and by Province-2013", 
      "package_id": "a9fb441a-613d-4b50-946b-8fe9daf856b8", 
      "position": 0, 
      "resource_group_id": "1da81caa-40ac-4084-81b8-a09ebb24735f", 
      "resource_type": "file", 
      "size": null, 
      "tracking_summary": {
        "recent": 0, 
        "total": 0
      }, 
      "url": "http://#", 
      "webstore_last_updated": null, 
      "webstore_url": null
    }
  ], 
  "tags": [
    "RSBSA", 
    "farm laborers", 
    "farmers", 
    "fisherment", 
    "marital status", 
    "province", 
    "sex"
  ], 
  "title": "RSBSA - Number of Registered Farmers, Farm Laborers and Fishermen by Sex, by Marital Status, and by Province - 2013", 
  "url": null, 
  "version": null
}