{
  "author": "Department of Environment and Natural Resources", 
  "author_email": "http://www.denr.gov.ph/", 
  "download_url": "http://www.geoportal.gov.ph/?p=%7B%22g%22%3A%5B13447549.87215%2C1643028.12395%2C4%2C%22Philippine%20Geoportal%20Basemap%22%5D%2C%22l%22%3A%5B%5B%22Water%20quality%20monitoring%20station%22%2C%22geoportal%3Adenr_wqms%22%2C1%2C%22WaterQualityMonitoringStations%22%2C0%2Cnull%5D%5D%7D", 
  "extras": {
    "Agency Code": "10 004 00 0000", 
    "Agency Name": "DEPARTMENT OF ENVIRONMENT AND NATURAL RESOURCES | National Mapping and Resource Information Authority", 
    "CONTACT NUMBER": "+632(02) 929-66-26", 
    "Category": "Environment and Climate", 
    "Data Dictionary": "", 
    "Data Quality": "yes", 
    "Download URL": "http://www.geoportal.gov.ph/?p=%7B%22g%22%3A%5B13447549.87215%2C1643028.12395%2C4%2C%22Philippine%20Geoportal%20Basemap%22%5D%2C%22l%22%3A%5B%5B%22Water%20quality%20monitoring%20station%22%2C%22geoportal%3Adenr_wqms%22%2C1%2C%22WaterQualityMonitoringStations%22%2C0%2Cnull%5D%5D%7D", 
    "Endpoint": "", 
    "Frequency of Update": "Other", 
    "Granularity": "Country", 
    "Homepage URL": "http://www.namria.gov.ph/", 
    "Language": "English", 
    "RSS Feed": "", 
    "Release Date": "2013-12-17", 
    "Size": "", 
    "Spatial": "no", 
    "System of Records": "", 
    "Temporal-end": "", 
    "Temporal-start": "", 
    "Unique Identifer": "NAMRIA-2013-048"
  }, 
  "id": "e983375d-41d0-4545-9b03-ec5bbbbde572", 
  "license": null, 
  "maintainer": "Ramon JP. Paje", 
  "maintainer_email": "http://www.denr.gov.ph", 
  "name": "water-quality-monitoring-station", 
  "notes": "The DENR - Water Quality Monitoring Stations  is a fundamental dataset uploaded to the Philippine Geoportal System (www.geoportal.gov.ph).  The extent or area of coverage is nationwide.   The dataset was shared to the portal by the Department of Environment and Natural Resources.", 
  "relationships": [], 
  "resources": [
    {
      "cache_last_updated": null, 
      "cache_url": null, 
      "created": "2013-12-16T02:30:45.359979", 
      "description": "", 
      "format": "PDF", 
      "hash": "", 
      "id": "2915d6d8-0caa-4413-8f7c-30aa29da9df7", 
      "last_modified": null, 
      "mimetype": null, 
      "mimetype_inner": null, 
      "name": "Water Quality Monitoring Station", 
      "package_id": "e983375d-41d0-4545-9b03-ec5bbbbde572", 
      "position": 0, 
      "resource_group_id": "b110694f-85b0-4392-a446-28c308b45154", 
      "resource_type": "file", 
      "size": null, 
      "tracking_summary": {
        "recent": 0, 
        "total": 0
      }, 
      "url": "http://www.geoportal.gov.ph/?p=%7B%22g%22%3A%5B13447549.87215%2C1643028.12395%2C4%2C%22Philippine%20Geoportal%20Basemap%22%5D%2C%22l%22%3A%5B%5B%22Water%20quality%20monitoring%20station%22%2C%22geoportal%3Adenr_wqms%22%2C1%2C%22WaterQualityMonitoringStations%22%2C0%2Cnull%5D%5D%7D", 
      "webstore_last_updated": null, 
      "webstore_url": null
    }
  ], 
  "tags": [
    "monitoring station", 
    "water quality"
  ], 
  "title": "Water Quality Monitoring Station", 
  "url": null, 
  "version": null
}