{
  "author": "Philippine Statistics Authority-National Statistics Office", 
  "author_email": "www.census.gov.ph", 
  "download_url": "http://#", 
  "extras": {
    "Agency Code": "24 003 00 0000", 
    "Agency Name": "NATIONAL ECONOMIC DEVELOPMENT AUTHORITY | National Statistics Office", 
    "CONTACT NUMBER": "(+632)  716-0807", 
    "Category": "Population", 
    "Data Dictionary": "", 
    "Data Quality": "yes", 
    "Download URL": "http://catalogue.data.gov.ph/NSO/RSBSA/RSBSA-Number of Registered Fishermen by Sex, by Main Purpose for Capturing Fish, and by Province and City, Municipality.xlsx", 
    "Endpoint": "", 
    "Frequency of Update": "Other", 
    "Granularity": "Province", 
    "Homepage URL": "http://www.census.gov.ph", 
    "Language": "English", 
    "RSS Feed": "", 
    "Release Date": "05/07/2014", 
    "Size": ".048", 
    "Spatial": "no", 
    "System of Records": "", 
    "Temporal-end": "12/31/2013", 
    "Temporal-start": "1/1/2012", 
    "Unique Identifer": "NSO-2014-016"
  }, 
  "id": "7d7b2ac1-fccb-40a8-a0b4-e500e9f30997", 
  "license": null, 
  "maintainer": "Philippine Statistics Authority-National Statistics Office", 
  "maintainer_email": "www.census.gov.ph", 
  "name": "rsbsa-number-of-registered-fishermen-by-sex-by-main-purpose-for-capturing-fish-2013", 
  "notes": "Registry System on Basic Sectors in Agriculture - Number of Registered Fishermen by Sex, by Main Purpose for Capturing Fish, and by Province and City, Municipality (As of 2013)", 
  "relationships": [], 
  "resources": [
    {
      "cache_last_updated": null, 
      "cache_url": null, 
      "created": "2014-05-03T09:37:43.927528", 
      "description": "", 
      "format": "xlsx", 
      "hash": "", 
      "id": "3ddab22a-9d8a-456c-affe-8652a5c0ebfc", 
      "last_modified": null, 
      "mimetype": null, 
      "mimetype_inner": null, 
      "name": "RSBSA-Number of Registered Fishermen by Sex, by Main Purpose for Capturing Fish, and by Province and City, Municipality-2013", 
      "package_id": "7d7b2ac1-fccb-40a8-a0b4-e500e9f30997", 
      "position": 0, 
      "resource_group_id": "265a1112-7b16-4c09-adc7-00fd4140884e", 
      "resource_type": "file", 
      "size": null, 
      "tracking_summary": {
        "recent": 0, 
        "total": 0
      }, 
      "url": "http://#", 
      "webstore_last_updated": null, 
      "webstore_url": null
    }
  ], 
  "tags": [
    "RSBSA", 
    "fish", 
    "fishermen", 
    "province", 
    "sex"
  ], 
  "title": "RSBSA - Number of Registered Fishermen by Sex, by Main Purpose for Capturing Fish, and by Province and City, Municipality - 2013", 
  "url": null, 
  "version": null
}