{
  "author": "Department of Agriculture", 
  "author_email": "http://www.da.gov.ph/", 
  "download_url": "http://data.insomnation.com/catalogue/storage/f/2013-12-13T02%3A23%3A13.262Z/training-calendar.csv", 
  "extras": {
    "Agency Code": "05 001 02\t00001", 
    "Agency Name": "DEPARTMENT OF AGRICULTURE | Agricultural Training Institute", 
    "CONTACT NUMBER": "(+632) 929-8541", 
    "Category": "Environment and Climate", 
    "Data Dictionary": "", 
    "Data Quality": "yes", 
    "Download URL": "", 
    "Endpoint": "", 
    "Frequency of Update": "Annually", 
    "Granularity": "Country", 
    "Homepage URL": "http://www.da.gov.ph/", 
    "Language": "English", 
    "RSS Feed": "", 
    "Release Date": "2013-12-14", 
    "Size": "0.000244141", 
    "Spatial": "yes", 
    "System of Records": "", 
    "Temporal-end": "", 
    "Temporal-start": "", 
    "Unique Identifer": "DA-2013-020"
  }, 
  "id": "f7bc87bc-8859-4576-b9a2-1118ad1a2db4", 
  "license": null, 
  "maintainer": "Mr. Al Camaya", 
  "maintainer_email": "web@da.gov.ph", 
  "name": "training-calendar", 
  "notes": "Schedule of Training Courses in the different ATI Training Centers", 
  "relationships": [], 
  "resources": [
    {
      "cache_last_updated": null, 
      "cache_url": null, 
      "created": "2013-12-13T02:24:19.531012", 
      "description": "", 
      "format": "XLS", 
      "hash": "", 
      "id": "0df0d7cf-fdaa-4cb6-b212-73c9c47e6f8b", 
      "last_modified": null, 
      "mimetype": null, 
      "mimetype_inner": null, 
      "name": "Training Calendar.csv", 
      "package_id": "f7bc87bc-8859-4576-b9a2-1118ad1a2db4", 
      "position": 0, 
      "resource_group_id": "2338fa18-52cd-4350-a0c6-b9c58b3178e5", 
      "resource_type": "file.upload", 
      "size": null, 
      "tracking_summary": {
        "recent": 0, 
        "total": 0
      }, 
      "url": "http://data.gov.ph/catalogue/storage/f/2013-12-13T02%3A23%3A13.262Z/training-calendar.csv", 
      "webstore_last_updated": null, 
      "webstore_url": null
    }
  ], 
  "tags": [
    "agriculture"
  ], 
  "title": "Training Calendar", 
  "url": null, 
  "version": null
}