{
  "author": "Bangko Sentral ng Pilipinas", 
  "author_email": "bspmail@bsp.gov.ph", 
  "download_url": "http://www.bsp.gov.ph/banking/pbs_archives/2009/49.xls", 
  "extras": {
    "Agency Code": "01 001 00 0000", 
    "Agency Name": "CONGRESS OF THE PHILIPPINES | Senate-Proper", 
    "CONTACT NUMBER": "(+632) 708-7559  or (+632) 708-7701 local 3045 or 3046", 
    "Category": "Economics and Labor", 
    "Data Dictionary": "http://www.bsp.gov.ph/banking/glossary.asp", 
    "Data Quality": "yes", 
    "Download URL": "http://www.bsp.gov.ph/banking/pbs_archives/2009/49.xls", 
    "Endpoint": "", 
    "Frequency of Update": "Quarterly", 
    "Granularity": "Country", 
    "Homepage URL": "http://www.bsp.gov.ph", 
    "Language": "English", 
    "RSS Feed": "", 
    "Release Date": "12/13/2013", 
    "Size": ".207", 
    "Spatial": "no", 
    "System of Records": "Banking Statistics", 
    "Temporal-end": "12/31/2009", 
    "Temporal-start": "01/01/2009", 
    "Unique Identifer": "BSP-2013-076"
  }, 
  "id": "bfe7ad61-5006-434c-a396-bb6ab6be1857", 
  "license": null, 
  "maintainer": "Director Vicente T. De Villa III", 
  "maintainer_email": "VdeVilla@bsp.gov.ph", 
  "name": "income-statement-and-key-ratios-of-rural-and-cooperative-banking-system-2009", 
  "notes": "Income Statement/Consolidated Statement of Income and Expense, and Key Ratios of Rural and Cooperative Banking System", 
  "relationships": [], 
  "resources": [
    {
      "cache_last_updated": null, 
      "cache_url": null, 
      "created": "2013-12-12T09:13:46.942081", 
      "description": "", 
      "format": "XLS", 
      "hash": "", 
      "id": "38455f59-895b-4324-92df-d87fcb8f846f", 
      "last_modified": null, 
      "mimetype": null, 
      "mimetype_inner": null, 
      "name": "Income Statement and Key Ratios of Rural and Cooperative Banking System 2009", 
      "package_id": "bfe7ad61-5006-434c-a396-bb6ab6be1857", 
      "position": 0, 
      "resource_group_id": "0ad0ac37-eb31-4c48-a4d5-2ecea53b82b2", 
      "resource_type": "file", 
      "size": null, 
      "tracking_summary": {
        "recent": 0, 
        "total": 0
      }, 
      "url": "http://www.bsp.gov.ph/banking/pbs_archives/2009/49.xls", 
      "webstore_last_updated": null, 
      "webstore_url": null
    }, 
    {
      "cache_last_updated": null, 
      "cache_url": null, 
      "created": "2013-12-12T09:14:12.134895", 
      "description": "", 
      "format": "XLS", 
      "hash": "", 
      "id": "6d4744b2-4803-4d2c-9df5-e5884afb1636", 
      "last_modified": null, 
      "mimetype": null, 
      "mimetype_inner": null, 
      "name": "Income Statement and Key Ratios of Rural and Cooperative Banking System 2009", 
      "package_id": "bfe7ad61-5006-434c-a396-bb6ab6be1857", 
      "position": 1, 
      "resource_group_id": "0ad0ac37-eb31-4c48-a4d5-2ecea53b82b2", 
      "resource_type": "file", 
      "size": null, 
      "tracking_summary": {
        "recent": 0, 
        "total": 0
      }, 
      "url": "http://www.bsp.gov.ph/banking/pbs_archives/2009/49.xls", 
      "webstore_last_updated": null, 
      "webstore_url": null
    }
  ], 
  "tags": [
    "CSIE", 
    "IS", 
    "consolidated statement of income and expense", 
    "income and expense", 
    "income statement", 
    "key ratios"
  ], 
  "title": "Income Statement and Key Ratios of Rural and Cooperative Banking System 2009", 
  "url": null, 
  "version": null
}