{
  "author": "Department of Environment and Natural Resources", 
  "author_email": "http://www.denr.gov.ph/", 
  "download_url": "http://data.insomnation.com/catalogue/storage/f/2013-12-12T01%3A35%3A19.906Z/prices-log-2013.csv", 
  "extras": {
    "Agency Code": "10 002 00 0000", 
    "Agency Name": "DEPARTMENT OF ENVIRONMENT AND NATURAL RESOURCES | Environmental Management Bureau", 
    "CONTACT NUMBER": "(+632)929-6626 to 29;", 
    "Category": "Environment and Climate", 
    "Data Dictionary": "", 
    "Data Quality": "yes", 
    "Download URL": "", 
    "Endpoint": "", 
    "Frequency of Update": "Annually", 
    "Granularity": "Country", 
    "Homepage URL": "http://www.denr.gov.ph/", 
    "Language": "English", 
    "RSS Feed": "", 
    "Release Date": "2013-12-13", 
    "Size": "0.000338554", 
    "Spatial": "yes", 
    "System of Records": "", 
    "Temporal-end": "2013-12-31", 
    "Temporal-start": "2013-01-01", 
    "Unique Identifer": "DOLE-2013-016"
  }, 
  "id": "936b443a-06e2-412b-b8c3-cb42c32f8890", 
  "license": null, 
  "maintainer": "Roberto L. de Leon", 
  "maintainer_email": "RLdeleon@denr.gov.ph", 
  "name": "log-prices-2013", 
  "notes": "This dataset contains the prices of log for the year 2013.", 
  "relationships": [], 
  "resources": [
    {
      "cache_last_updated": null, 
      "cache_url": null, 
      "created": "2013-12-12T01:37:37.393407", 
      "description": "", 
      "format": "XLS", 
      "hash": "", 
      "id": "99bf72f2-3474-4957-bc01-5b52b8630126", 
      "last_modified": null, 
      "mimetype": null, 
      "mimetype_inner": null, 
      "name": "prices-log 2013.csv", 
      "package_id": "936b443a-06e2-412b-b8c3-cb42c32f8890", 
      "position": 0, 
      "resource_group_id": "0d4a6e1b-6786-40af-b699-d11f01781e4d", 
      "resource_type": "file.upload", 
      "size": null, 
      "tracking_summary": {
        "recent": 0, 
        "total": 0
      }, 
      "url": "http://data.gov.ph/catalogue/storage/f/2013-12-12T01%3A35%3A19.906Z/prices-log-2013.csv", 
      "webstore_last_updated": null, 
      "webstore_url": null
    }
  ], 
  "tags": [
    "log prices 2013"
  ], 
  "title": "Log Prices 2013", 
  "url": null, 
  "version": null
}