{
  "author": "Office of the Civil Defense ", 
  "author_email": "http://ocd.gov.ph/", 
  "download_url": "http://www.geoportal.gov.ph/?p=%7B%22g%22%3A%5B13478029.682%2C1641148.4546%2C5%2C%22Philippine%20Geoportal%20Basemap%22%5D%2C%22l%22%3A%5B%5B%22Ground%20Shaking%20Risk%20M7.2%20-%20Serious%20But%20Non-Life%20Threatening%20M7.2%20per%20Barangay%20%28normalized%29%22%2C%22geoportal%3Arap_gsrisk_brgy_m7p2_webmercator%22%2C1%2C%22NormalizedSeriousButNonLifeThreateningM72perBarangay%22%2C0%2Cnull%5D%5D%7D", 
  "extras": {
    "Agency Code": "10 004 00 0000", 
    "Agency Name": "DEPARTMENT OF ENVIRONMENT AND NATURAL RESOURCES | National Mapping and Resource Information Authority", 
    "CONTACT NUMBER": "+632(02) 421-19-26; (02) 912-66-75", 
    "Category": "Geography, Geology and Geodata", 
    "Data Dictionary": "", 
    "Data Quality": "yes", 
    "Download URL": "http://www.geoportal.gov.ph/?p=%7B%22g%22%3A%5B13478029.682%2C1641148.4546%2C5%2C%22Philippine%20Geoportal%20Basemap%22%5D%2C%22l%22%3A%5B%5B%22Ground%20Shaking%20Risk%20M7.2%20-%20Serious%20But%20Non-Life%20Threatening%20M7.2%20per%20Barangay%20%28normalized%29%22%2C%22geoportal%3Arap_gsrisk_brgy_m7p2_webmercator%22%2C1%2C%22NormalizedSeriousButNonLifeThreateningM72perBarangay%22%2C0%2Cnull%5D%5D%7D", 
    "Endpoint": "", 
    "Frequency of Update": "Other", 
    "Granularity": "Country", 
    "Homepage URL": "http://www.namria.gov.ph/", 
    "Language": "English", 
    "RSS Feed": "", 
    "Release Date": "2014-01-04", 
    "Size": "", 
    "Spatial": "no", 
    "System of Records": "", 
    "Temporal-end": "", 
    "Temporal-start": "", 
    "Unique Identifer": "NAMRIA-2013-159"
  }, 
  "id": "c0b493df-8a8d-4e7f-b38c-8a6e46d9275d", 
  "license": null, 
  "maintainer": "Eduardo D. Del Rosario", 
  "maintainer_email": "http://ocd.gov.ph/", 
  "name": "ground-shaking-risk-m7-2-serious-but-non-life-threatening-m7-2-per-barangay-normalized", 
  "notes": "Ground shaking risk M7.2 - Serious But Non-Life Threatening M7.2 per Barangay (normalized)  is a fundamental dataset uploaded to the Philippine Geoportal System (www.geoportal.gov.ph).  The dataset was shared to the portal by the Office of the Civil Defense.", 
  "relationships": [], 
  "resources": [
    {
      "cache_last_updated": null, 
      "cache_url": null, 
      "created": "2014-01-03T07:55:08.151329", 
      "description": "", 
      "format": "PDF", 
      "hash": "", 
      "id": "dd92dd62-c73c-432e-a374-c230a5c9fb7d", 
      "last_modified": null, 
      "mimetype": null, 
      "mimetype_inner": null, 
      "name": "Ground shaking risk M7.2 - Serious But Non-Life Threatening M7.2 per Barangay (normalized)", 
      "package_id": "c0b493df-8a8d-4e7f-b38c-8a6e46d9275d", 
      "position": 0, 
      "resource_group_id": "45e4599b-4bca-48b9-9310-e719a4c88afc", 
      "resource_type": "file", 
      "size": null, 
      "tracking_summary": {
        "recent": 0, 
        "total": 0
      }, 
      "url": "http://www.geoportal.gov.ph/?p=%7B%22g%22%3A%5B13478029.682%2C1641148.4546%2C5%2C%22Philippine%20Geoportal%20Basemap%22%5D%2C%22l%22%3A%5B%5B%22Ground%20Shaking%20Risk%20M7.2%20-%20Serious%20But%20Non-Life%20Threatening%20M7.2%20per%20Barangay%20%28normalized%29%22%2C%22geoportal%3Arap_gsrisk_brgy_m7p2_webmercator%22%2C1%2C%22NormalizedSeriousButNonLifeThreateningM72perBarangay%22%2C0%2Cnull%5D%5D%7D", 
      "webstore_last_updated": null, 
      "webstore_url": null
    }
  ], 
  "tags": [
    "Ground shaking risk", 
    "Office of the Civil Defense", 
    "Serious But Non-Life Threatening", 
    "namria", 
    "ph"
  ], 
  "title": "Ground shaking risk M7.2 - Serious But Non-Life Threatening M7.2 per Barangay (normalized)", 
  "url": null, 
  "version": null
}