{
  "author": "Philippine Statistics Authority-National Statistical Coordination Board", 
  "author_email": "www.nscb.gov.ph", 
  "download_url": "http://#", 
  "extras": {
    "Agency Code": "24 002 00 0000", 
    "Agency Name": "NATIONAL ECONOMIC DEVELOPMENT AUTHORITY | National Statistical Coordination Board", 
    "CONTACT NUMBER": "(+632) 895-2767", 
    "Category": "Economics and Labor", 
    "Data Dictionary": "", 
    "Data Quality": "yes", 
    "Download URL": "http://catalogue.data.gov.ph/NSCB/NSCB-Statistical Indicators-2012.xlsx", 
    "Endpoint": "", 
    "Frequency of Update": "Annually", 
    "Granularity": "Country", 
    "Homepage URL": "http://www.nscb.gov.ph", 
    "Language": "English", 
    "RSS Feed": "", 
    "Release Date": "05/07/2014", 
    "Size": ".009", 
    "Spatial": "no", 
    "System of Records": "", 
    "Temporal-end": "", 
    "Temporal-start": "", 
    "Unique Identifer": "NSCB-2014-017"
  }, 
  "id": "5faa4c82-cd0f-4072-a317-9a8a387d7c21", 
  "license": "License Not Specified", 
  "maintainer": "Philippine Statistics Authority-National Statistical Coordination Board", 
  "maintainer_email": "www.nscb.gov.ph", 
  "name": "nscb-statistical-indicators-2012", 
  "notes": "Statistical Indicators for 2012", 
  "relationships": [], 
  "resources": [
    {
      "cache_last_updated": null, 
      "cache_url": null, 
      "created": "2014-05-04T12:54:54.183610", 
      "description": "", 
      "format": "xlsx", 
      "hash": "", 
      "id": "3803309f-f244-47b5-bf2f-bd70ed421730", 
      "last_modified": null, 
      "mimetype": null, 
      "mimetype_inner": null, 
      "name": "NSCB-Statistical Indicators-2012", 
      "package_id": "5faa4c82-cd0f-4072-a317-9a8a387d7c21", 
      "position": 0, 
      "resource_group_id": "dd2f68d2-abd3-40bf-bb73-3ec3f1a5ae02", 
      "resource_type": "file", 
      "size": null, 
      "tracking_summary": {
        "recent": 0, 
        "total": 0
      }, 
      "url": "http://#", 
      "webstore_last_updated": null, 
      "webstore_url": null
    }
  ], 
  "tags": [
    "statistical development", 
    "statistical indicators"
  ], 
  "title": "NSCB - Statistical Indicators - 2012", 
  "url": null, 
  "version": null
}